EnSight Gold
testing elements
node id assign
element id assign
part
         1
all elements but n-sided
coordinates
        33
0.00000e+000
2.00000e+000
3.00000e+000
0.00000e+000
1.00000e+000
5.00000e-001
4.00000e+000
5.00000e+000
5.00000e+000
4.00000e+000
0.00000e+000
1.00000e+000
5.00000e-001
5.00000e-001
4.00000e+000
5.00000e+000
5.00000e+000
4.00000e+000
4.50000e+000
0.00000e+000
1.00000e+000
1.00000e+000
0.00000e+000
0.00000e+000
1.00000e+000
1.00000e+000
0.00000e+000
4.00000e+000
4.50000e+000
5.00000e+000
4.00000e+000
4.50000e+000
5.00000e+000
6.00000e+000
6.00000e+000
6.00000e+000
4.00000e+000
4.00000e+000
5.00000e+000
4.00000e+000
4.00000e+000
5.00000e+000
5.00000e+000
2.00000e+000
2.00000e+000
3.00000e+000
2.50000e+000
2.00000e+000
2.00000e+000
3.00000e+000
3.00000e+000
2.50000e+000
0.00000e+000
0.00000e+000
1.00000e+000
1.00000e+000
0.00000e+000
0.00000e+000
1.00000e+000
1.00000e+000
1.00000e+000
0.00000e+000
1.00000e+000
1.00000e+000
0.00000e+000
1.00000e+000
0.00000e+000
0.00000e+000
0.00000e+000
0.00000e+000
0.00000e+000
0.00000e+000
0.00000e+000
0.00000e+000
0.00000e+000
0.00000e+000
0.00000e+000
0.00000e+000
0.00000e+000
1.00000e+000
0.00000e+000
0.00000e+000
0.00000e+000
0.00000e+000
1.00000e+000
0.00000e+000
0.00000e+000
0.00000e+000
0.00000e+000
1.00000e+000
1.00000e+000
1.00000e+000
1.00000e+000
0.00000e+000
0.00000e+000
0.00000e+000
1.00000e+000
1.00000e+000
1.00000e+000
point
         1
         1
bar2
         1
         2         3
tria3
         1
         4         5         6
quad4
         1
         7         8         9        10
tetra4
         1
        11        12        13        14
pyramid5
         1
        15        16        17        18        19
hexa8
         1
        20        21        22        23        24        25        26        27
penta6
         1
        28        29        30        31        32        33
part
         2
nsided element
coordinates
         4
6.00000e+000
7.00000e+000
7.00000e+000
6.00000e+000
7.00000e+000
7.00000e+000
6.00000e+000
6.00000e+000
0.00000e+000
0.00000e+000
0.00000e+000
0.00000e+000
nsided
         1
         4
         1         2         3         4