# vtk DataFile Version 3.0
vtk output
ASCII
DATASET UNSTRUCTURED_GRID
POINTS  429  FLOAT
  0.0556424  -0.0258657  2.92548  
  0.0361817  -0.0398392  2.97613  
  0.0660207  -0.0426099  3.02976  
  0.0785846  -0.071641  3.08494  
  0.0688913  -0.0684695  3.14581  
  0.0933191  -0.0636694  3.20149  
  0.0804159  -0.0782319  3.27  
  0.104304  -0.0824419  3.33508  
  0.102471  -0.0711196  3.41035  
  0.125359  -0.055578  3.48612  
  0.153635  -0.0674256  3.55825  
  0.17755  -0.0505558  3.62104  
  0.194942  -0.0337191  3.68131  
  0.179646  -0.0122415  3.74412  
  0.163086  0.027585  3.81042  
  0.158445  0.0539597  3.86459  
  0.164015  0.0702845  3.92907  
  0.137457  0.108878  3.99748  
  0.13623  0.132423  4.05061  
  0.279542  0.136415  4.0723  
  0.302319  0.170174  4.11723  
  0.263387  0.217412  4.18324  
  0.243947  0.263565  4.22645  
  -0.173338  0.198649  4.17817  
  -0.226199  0.230152  4.23164  
  -0.26059  0.258684  4.29092  
  -0.293992  0.277052  4.34616  
  -0.319161  0.306235  4.39502  
  -0.368331  0.324845  4.45691  
  -0.398097  0.345807  4.50555  
  -0.456297  0.358038  4.55408  
  -0.514822  0.359294  4.62767  
  -0.551456  0.371903  4.68929  
  -0.592358  0.376943  4.74196  
  -0.64338  0.390372  4.79084  
  -0.685678  0.397806  4.83775  
  -0.749939  0.398002  4.88661  
  -0.807982  0.398861  4.93037  
  -0.851343  0.406044  4.97618  
  -0.895859  0.425449  4.99768  
  -0.916238  0.448072  5.03904  
  0.348537  0.259488  4.27071  
  0.364647  0.289995  4.3131  
  0.386975  0.32746  4.35972  
  0.000889435  0.345228  4.32233  
  -0.0458206  0.378453  4.3668  
  -0.062726  0.392076  4.42693  
  -0.0908121  0.408227  4.48677  
  -0.112914  0.427751  4.5504  
  -0.149829  0.459305  4.61144  
  -0.169022  0.490311  4.66758  
  -0.191856  0.508587  4.72496  
  -0.215337  0.551094  4.78703  
  -0.247744  0.574514  4.84094  
  -0.26739  0.613472  4.89254  
  -0.287887  0.629435  4.94791  
  -0.312799  0.683817  4.98396  
  -0.323275  0.703614  5.03274  
  -0.346455  0.749576  5.07135  
  -0.332972  0.767929  5.12396  
  -0.372257  0.828128  5.15779  
  -0.394236  0.872457  5.20687  
  -0.409617  0.922991  5.25214  
  -0.420918  0.960268  5.30588  
  -0.438503  1.00474  5.34919  
  -0.452526  1.04328  5.40103  
  -0.466846  1.08079  5.45367  
  -0.481322  1.11789  5.50676  
  -0.495616  1.1548  5.56307  
  -0.509698  1.19135  5.62031  
  -0.525509  1.22858  5.68208  
  -0.533814  1.26052  5.74958  
  -0.546006  1.28868  5.81001  
  -0.552306  1.30592  5.85547  
  -0.558258  1.3222  5.8984  
  -0.564324  1.33876  5.94208  
  -0.568697  1.34909  5.98484  
  -0.574505  1.36282  6.04163  
  -0.580283  1.37648  6.09814  
  -0.586085  1.3902  6.15488  
  -0.59183  1.40086  6.21876  
  -0.59825  1.41168  6.29313  
  -0.600646  1.40149  6.35859  
  -0.608865  1.42955  6.41604  
  -0.614545  1.43495  6.4857  
  -0.620499  1.43912  6.56001  
  -0.627934  1.4548  6.6284  
  -0.631453  1.44681  6.69681  
  -0.637202  1.44316  6.77057  
  -0.642454  1.43403  6.8448  
  -0.648904  1.42946  6.91887  
  -0.65644  1.42086  6.99297  
  -0.660658  1.4088  7.07067  
  -0.665137  1.38423  7.14712  
  -0.670837  1.37566  7.22656  
  -0.673829  1.35011  7.30269  
  -0.681828  1.33681  7.38091  
  -0.686047  1.31064  7.45646  
  -0.691523  1.30034  7.53556  
  -0.694272  1.27313  7.61105  
  -0.699304  1.26065  7.68532  
  -0.706429  1.24878  7.75793  
  -0.70896  1.2359  7.83041  
  -0.716084  1.22402  7.90299  
  -1.02996  0.393432  5.06431  
  -1.09147  0.405724  5.10385  
  -1.1592  0.420653  5.13127  
  -1.21913  0.433605  5.16805  
  -1.28028  0.418117  5.18072  
  -1.33314  0.419388  5.1733  
  -1.36996  0.409738  5.16675  
  -0.824549  0.586003  5.08238  
  -0.821315  0.638052  5.11801  
  -0.817889  0.688004  5.15253  
  -0.816012  0.733417  5.18522  
  -0.814136  0.77883  5.21792  
  -0.814797  0.828653  5.25638  
  -0.80566  0.872937  5.29856  
  -0.802215  0.932707  5.3496  
  -0.796565  0.967094  5.39349  
  -0.791266  1.02062  5.43771  
  -0.787383  1.05463  5.47437  
  -0.783218  1.0858  5.51689  
  -0.778655  1.13102  5.55676  
  -0.774917  1.15994  5.59404  
  -0.771179  1.18885  5.63133  
  -0.76744  1.21777  5.66862  
  -0.763702  1.24668  5.70591  
  -0.760612  1.27146  5.7441  
  -0.757521  1.29624  5.7823  
  -0.754431  1.32102  5.82048  
  -0.75134  1.3458  5.85868  
  -0.749099  1.36762  5.89784  
  -0.746858  1.38944  5.93701  
  -0.744618  1.41126  5.97617  
  -0.742377  1.43308  6.01533  
  -0.740448  1.45068  6.05512  
  -0.738519  1.46828  6.0949  
  -0.736591  1.48588  6.13469  
  -0.734662  1.50349  6.17448  
  -0.731756  1.51365  6.23099  
  -0.72823  1.53611  6.29508  
  -0.723282  1.55655  6.36976  
  -0.718547  1.57225  6.43127  
  -0.715327  1.58035  6.50586  
  -0.703451  1.57628  6.58125  
  -0.69799  1.5777  6.62455  
  -0.692528  1.57912  6.66785  
  -0.684447  1.58012  6.71535  
  -0.676365  1.58112  6.76285  
  -0.668283  1.58212  6.81034  
  -0.660201  1.58312  6.85783  
  -0.651515  1.58354  6.90539  
  -0.642829  1.58396  6.95295  
  -0.634142  1.58438  7.00051  
  -0.625456  1.5848  7.04806  
  -0.618182  1.58448  7.09154  
  -0.610907  1.58415  7.13503  
  -0.603633  1.58383  7.17851  
  -0.596358  1.5835  7.22199  
  -0.588665  1.58103  7.29256  
  -0.580972  1.57856  7.36312  
  -0.578188  1.57512  7.40851  
  -0.575405  1.57168  7.4539  
  -0.57032  1.56481  7.50171  
  -0.565621  1.55775  7.52727  
  -0.561209  1.55029  7.55133  
  -0.556985  1.54221  7.59462  
  -0.552585  1.53396  7.65279  
  -0.547986  1.52568  7.71086  
  -0.543611  1.51666  7.77367  
  -0.539879  1.50622  7.84603  
  -0.538546  1.49994  7.8894  
  -0.537212  1.49367  7.93277  
  0.474868  0.358332  4.33374  
  0.49901  0.401311  4.36279  
  0.533242  0.423709  4.41274  
  0.555601  0.477615  4.43813  
  0.59639  0.500728  4.47427  
  0.622097  0.537142  4.5112  
  0.662688  0.55069  4.55727  
  0.323216  0.299167  4.56553  
  0.315744  0.356527  4.6444  
  0.325784  0.390958  4.69554  
  0.335271  0.420339  4.75823  
  0.328632  0.457356  4.82234  
  0.348245  0.490601  4.86118  
  0.340546  0.540336  4.8865  
  0.35143  0.570807  4.95148  
  0.366414  0.610012  5.00706  
  0.37089  0.684295  5.04546  
  0.381926  0.725379  5.10415  
  0.392893  0.796019  5.14566  
  0.400471  0.85331  5.19099  
  0.411821  0.910321  5.23997  
  0.425536  0.954217  5.29279  
  0.441357  0.997924  5.34407  
  0.454831  1.03881  5.39698  
  0.468566  1.07842  5.45075  
  0.482355  1.11736  5.50469  
  0.496217  1.15499  5.56205  
  0.509873  1.19141  5.62001  
  0.523324  1.22821  5.68275  
  0.53543  1.26306  5.74815  
  0.546006  1.28868  5.81001  
  0.552306  1.30592  5.85547  
  0.558258  1.3222  5.8984  
  0.564324  1.33876  5.94208  
  0.568697  1.34909  5.98484  
  0.574505  1.36282  6.04163  
  0.58028  1.37648  6.09811  
  0.586085  1.3902  6.15488  
  0.59183  1.40086  6.21876  
  0.59825  1.41168  6.29313  
  0.600646  1.40149  6.35859  
  0.608865  1.42955  6.41604  
  0.614545  1.43495  6.4857  
  0.620499  1.43912  6.56001  
  0.627934  1.4548  6.6284  
  0.631453  1.44681  6.69681  
  0.639188  1.44192  6.77039  
  0.642757  1.43579  6.84494  
  0.648601  1.4277  6.91873  
  0.653207  1.42011  6.99308  
  0.658274  1.40559  7.07032  
  0.665952  1.38372  7.14696  
  0.673522  1.37128  7.22549  
  0.67362  1.35103  7.30292  
  0.679429  1.33365  7.38031  
  0.686862  1.31014  7.45629  
  0.694202  1.29598  7.5344  
  0.694061  1.27406  7.61126  
  -0.716084  1.22402  7.90299  
  -1.43663  0.43972  5.24441  
  -1.4849  0.451568  5.26465  
  -1.36467  0.323728  5.00897  
  -1.36257  0.298111  4.97146  
  -1.36046  0.272087  4.93133  
  -1.35624  0.245364  4.88894  
  -1.35813  0.222609  4.85829  
  -1.35649  0.196994  4.81717  
  -1.35483  0.169827  4.77075  
  -1.34638  0.136383  4.71271  
  -1.34119  0.110215  4.66434  
  -1.33783  0.084797  4.62149  
  -1.33448  0.0593791  4.57864  
  -1.33112  0.0339612  4.53578  
  -1.32776  0.00854324  4.49293  
  -0.537212  1.49367  7.93277  
  0.781322  0.375442  4.72021  
  0.801864  0.385569  4.78473  
  0.860802  0.393423  4.8365  
  0.906704  0.413554  4.87335  
  0.931219  0.422008  4.92445  
  0.973151  0.42337  4.96731  
  0.968547  0.464967  4.9989  
  0.989091  0.495716  5.02188  
  0.631035  0.736381  4.49062  
  0.653253  0.800586  4.50778  
  0.685455  0.843112  4.52315  
  0.687394  0.906219  4.54222  
  0.727566  0.951716  4.54847  
  0.746701  1.01528  4.5288  
  0.751532  1.07004  4.53245  
  0.764384  1.11954  4.52022  
  0.750065  1.19211  4.48853  
  0.73598  1.24694  4.48954  
  0.694061  1.27406  7.61126  
  1.10188  0.441762  5.05127  
  1.15699  0.442415  5.09065  
  1.17716  0.468425  5.1173  
  1.23331  0.436317  5.12434  
  1.29179  0.396749  5.11855  
  1.33099  0.361777  5.11115  
  0.863171  0.630652  5.05833  
  0.857536  0.671423  5.09732  
  0.848552  0.712849  5.13904  
  0.838633  0.754851  5.1805  
  0.835772  0.785529  5.21477  
  0.82583  0.838818  5.26087  
  0.817668  0.884979  5.3106  
  0.805835  0.949506  5.36048  
  0.797087  0.993025  5.40516  
  0.792806  1.03236  5.43808  
  0.788263  1.06215  5.48029  
  0.783949  1.10085  5.51404  
  0.779439  1.13128  5.55542  
  0.775505  1.16013  5.59304  
  0.771571  1.18898  5.63067  
  0.767637  1.21783  5.66829  
  0.763702  1.24668  5.70591  
  0.760612  1.27146  5.7441  
  0.757521  1.29624  5.7823  
  0.754431  1.32102  5.82048  
  0.75134  1.3458  5.85868  
  0.749099  1.36762  5.89784  
  0.746858  1.38944  5.93701  
  0.744618  1.41126  5.97617  
  0.742377  1.43308  6.01533  
  0.740448  1.45068  6.05512  
  0.738519  1.46828  6.0949  
  0.736591  1.48588  6.13469  
  0.734662  1.50349  6.17448  
  0.731756  1.51365  6.23099  
  0.72823  1.53611  6.29508  
  0.723282  1.55655  6.36976  
  0.718547  1.57225  6.43127  
  0.715327  1.58035  6.50586  
  0.703451  1.57628  6.58125  
  0.69799  1.5777  6.62455  
  0.692528  1.57912  6.66785  
  0.684447  1.58012  6.71535  
  0.676365  1.58112  6.76285  
  0.668283  1.58212  6.81034  
  0.660201  1.58312  6.85783  
  0.651515  1.58354  6.90539  
  0.642829  1.58396  6.95295  
  0.634142  1.58438  7.00051  
  0.625456  1.5848  7.04806  
  0.618182  1.58448  7.09154  
  0.610907  1.58415  7.13503  
  0.603633  1.58383  7.17851  
  0.596358  1.5835  7.22199  
  0.588665  1.58103  7.29256  
  0.580972  1.57856  7.36312  
  0.578188  1.57512  7.40851  
  0.575405  1.57168  7.4539  
  0.57032  1.56481  7.50171  
  0.565621  1.55775  7.52727  
  0.561209  1.55029  7.55133  
  0.556985  1.54221  7.59462  
  0.552585  1.53396  7.65279  
  0.547986  1.52568  7.71086  
  0.543611  1.51666  7.77367  
  0.539879  1.50622  7.84603  
  0.538546  1.49994  7.8894  
  0.537212  1.49367  7.93277  
  1.40932  0.455225  5.23999  
  1.45947  0.463583  5.27487  
  1.51453  0.460347  5.3046  
  1.57238  0.483877  5.32306  
  1.60797  0.52206  5.34743  
  1.65051  0.544156  5.36229  
  1.33714  0.189406  4.93836  
  1.32696  0.13043  4.83655  
  1.32455  0.0936909  4.78709  
  1.32214  0.056952  4.73762  
  1.31972  0.0202131  4.68816  
  1.31732  -0.0165258  4.6387  
  1.3149  -0.0532646  4.58923  
  1.31249  -0.0900035  4.53977  
  1.31257  -0.126715  4.49047  
  1.31181  -0.154258  4.44982  
  1.30897  -0.183126  4.41015  
  1.30613  -0.211994  4.37047  
  1.3033  -0.240862  4.3308  
  1.30046  -0.26973  4.29113  
  1.29762  -0.298598  4.25146  
  1.29478  -0.327466  4.21178  
  1.28936  -0.356595  4.17202  
  0.537212  1.49367  7.93277  
  1.77277  0.495295  5.35932  
  1.84288  0.479988  5.38059  
  1.89804  0.500428  5.40095  
  1.96496  0.501633  5.42121  
  2.03082  0.510823  5.42941  
  2.10288  0.507748  5.43859  
  2.17887  0.512047  5.44101  
  2.25639  0.507528  5.42125  
  2.3118  0.516586  5.42847  
  2.38693  0.51554  5.38669  
  2.44494  0.519077  5.37159  
  2.49938  0.523  5.3512  
  2.55063  0.534668  5.33917  
  2.60976  0.535265  5.30319  
  2.66124  0.535452  5.27316  
  2.70594  0.542464  5.224  
  2.75276  0.538252  5.20279  
  2.79752  0.540685  5.16321  
  2.84851  0.550393  5.13519  
  2.87566  0.545721  5.06207  
  2.92406  0.550767  5.02123  
  2.96937  0.553783  4.96823  
  3.00846  0.553824  4.92213  
  3.05312  0.546645  4.87028  
  3.0858  0.55416  4.82775  
  3.12465  0.549829  4.79088  
  3.16293  0.545883  4.7539  
  3.19654  0.543916  4.71956  
  3.24134  0.541293  4.67377  
  3.28615  0.538671  4.62797  
  3.33096  0.536048  4.58218  
  3.37365  0.522439  4.53351  
  3.41422  0.525487  4.4938  
  3.45364  0.522091  4.45443  
  3.49152  0.500329  4.41428  
  3.50032  0.477912  4.37696  
  3.51107  0.472287  4.35067  
  3.5293  0.450694  4.32161  
  3.56139  0.454172  4.29286  
  1.53215  0.682455  5.43847  
  1.52943  0.7304  5.48311  
  1.52895  0.764988  5.5182  
  1.52781  0.801653  5.55554  
  1.5315  0.843162  5.59333  
  1.53673  0.877766  5.6254  
  1.54231  0.913797  5.65592  
  1.54777  0.945362  5.68426  
  1.28936  -0.356595  4.17202  
  3.60735  0.488579  4.28487  
  3.68302  0.514179  4.21657  
  3.73181  0.512054  4.18274  
  3.53062  0.319012  4.19304  
  3.53682  0.287496  4.13801  
  3.54383  0.248597  4.07036  
  3.54959  0.207597  4.00163  
  3.55624  0.173288  3.93841  
  3.56288  0.13898  3.87519  
  3.5663  0.109731  3.82679  
  3.56972  0.0804818  3.77839  
  3.57314  0.051233  3.72998  
  3.57655  0.0219841  3.68158  
  3.57997  -0.00726484  3.63317  
  3.58338  -0.0365137  3.58477  
  3.5868  -0.0657626  3.53637  
  3.59022  -0.0950115  3.48796  
  1.54777  0.945362  5.68426  
  3.73181  0.512054  4.18274  
  3.59022  -0.0950115  3.48796  
CELLS 21  462
19  0 1 2 3 4 5 6 7 8 9 10 11 12 13 14 15 16 17 18 
5  18 19 20 21 22 
19  18 23 24 25 26 27 28 29 30 31 32 33 34 35 36 37 38 39 40 
4  22 41 42 43 
61  22 44 45 46 47 48 49 50 51 52 53 54 55 56 57 58 59 60 61 62 63 64 65 66 67 68 69 70 71 72 73 74 75 76 77 78 79 80 81 82 83 84 85 86 87 88 89 90 91 92 93 94 95 96 97 98 99 100 101 102 103 
8  43 174 175 176 177 178 179 180 
52  43 181 182 183 184 185 186 187 188 189 190 191 192 193 194 195 196 197 198 199 200 201 202 203 204 205 206 207 208 209 210 211 212 213 214 215 216 217 218 219 220 221 222 223 224 225 226 227 228 229 230 231 
9  180 249 250 251 252 253 254 255 256 
11  180 257 258 259 260 261 262 263 264 265 266 
7  256 268 269 270 271 272 273 
64  256 274 275 276 277 278 279 280 281 282 283 284 285 286 287 288 289 290 291 292 293 294 295 296 297 298 299 300 301 302 303 304 305 306 307 308 309 310 311 312 313 314 315 316 317 318 319 320 321 322 323 324 325 326 327 328 329 330 331 332 333 334 335 336 
7  273 337 338 339 340 341 342 
18  273 343 344 345 346 347 348 349 350 351 352 353 354 355 356 357 358 359 
40  342 361 362 363 364 365 366 367 368 369 370 371 372 373 374 375 376 377 378 379 380 381 382 383 384 385 386 387 388 389 390 391 392 393 394 395 396 397 398 399 
9  342 400 401 402 403 404 405 406 407 
4  399 409 410 411 
15  399 412 413 414 415 416 417 418 419 420 421 422 423 424 425 
8  40 104 105 106 107 108 109 110 
64  40 111 112 113 114 115 116 117 118 119 120 121 122 123 124 125 126 127 128 129 130 131 132 133 134 135 136 137 138 139 140 141 142 143 144 145 146 147 148 149 150 151 152 153 154 155 156 157 158 159 160 161 162 163 164 165 166 167 168 169 170 171 172 173 
3  110 233 234 
14  110 235 236 237 238 239 240 241 242 243 244 245 246 247 
CELL_TYPES  21
4
4
4
4
4
4
4
4
4
4
4
4
4
4
4
4
4
4
4
4
4
