# vtk DataFile Version 3.0
vtk output
ASCII
DATASET UNSTRUCTURED_GRID
POINTS  11  FLOAT
  0.0  0.0  0.0
  0.0  1.0  0.0
  -1.0  2.0  0.0
  -2.0  3.0  0.0
  -1.0  3.0  0.0
  -0.5  3.0  0.0
  0.0  2.0  0.0
  1.0  2.0  0.0
  0.5  3.0  0.0
  1.0  3.0  0.0
  2.0  3.0  0.0

CELLS 10  30
2 0 1
2 1 2
2 2 3
2 2 4
2 2 5
2 1 6
2 1 7
2 7 8
2 7 9
2 7 10

CELL_TYPES  10
3
3
3
3
3
3
3
3
3
3