*Param Write Swicht
1
*Renumbering
0
*StepContinuationControl
F 100 1 1
1 1 1 30000 0.1 0.1 0.1 
0.01 0.01 0.01 0.01 0.01 0.01 0.01 
VX	 VY	 VZ	 P	 UX	 UY	 UZ	 
0 0 0 
*TimeStep ( DelT, Tini, Tmax )
0 0 0
*OutputControl
1 1
*NodeOutputControl (#nodes=0 > All >> OutputNodesList )
0 

*ElementLibraryControl  (MaxElemLib,MaxLCommonPar)
15 13

*SubStep
F T 100 1 -1 
100 1e-10 60 20 1e-10
1 0 0 -1 0 
3 1 0 -2 0 
5245 0 0 0 0 
5705 1 0 0 0 
542 1 0 -3 0 
542 1 0 -4 0 
23 1 0 -5 0 
23 1 0 -6 0 
5245 0 0 0 0 
5705 1 0 0 0 
542 1 0 -7 0 
542 1 0 -8 0 
23 1 0 -9 0 
23 1 0 -10 0 
99 0 0 0 0 
1.04 0.04 1 3 0.5 2 0 0 0 0 0 0 0 
1 3 0 0 0 0 0 0 0 0 0 0 0 
1.04 0.04 1e-05 0.5 0 0 0 1 0.038 0.1 0 0 0 
1 -1 0 1 0 0 0 0 0 0 1 0 0 
1 -1 0 1 0 0 0 0 0 0 0 0 0 
1 -1 0 1 0 0 0 0 0 0 0 0 0 
1 0 0 1 0 0 0 0 0 0 0 0 0 
1 0 0 -1 0 0 0 0 0 0 0 0 0 
1.04 0.04 1e-05 0.5 0 0 0 1 0.038 0.1 0 0 0 
1 -1 0 1 0 0 0 0 0 0 1 0 0 
1 -1 0 1 0 0 0 0 0 0 0 0 0 
1 -1 0 1 0 0 0 0 0 0 0 0 0 
1 0 0 1 0 0 0 0 0 0 0 0 0 
1 0 0 -1 0 0 0 0 0 0 0 0 0 
0 0 0 0 0 0 0 0 0 0 0 0 0 
1 30000 0.1 30000 0.01 0.01 0.01 
0.01 0.01 0.01 0.01 1 1 1 
VX	 VY	 VZ	 P	 UX	 UY	 UZ	 
0 0 0 

*SubStep
F T 100 1 -1 
100 1e-10 60 20 1e-10
1 0 0 0 0 
3 1 0 0 0 
5245 0 0 -11 0 
5705 1 0 -12 0 
541 1 0 -13 0 
541 1 0 -14 0 
23 1 0 -15 0 
23 1 0 -16 0 
5245 0 0 0 0 
5705 1 0 0 0 
541 1 0 0 0 
541 1 0 0 0 
23 1 0 0 0 
23 1 0 0 0 
99 0 0 0 0 
1.04 0.04 1 3 0.5 2 0 0 0 0 0 0 0 
1 3 0 0 0 0 0 0 0 0 0 0 0 
1.04 0.04 1e-05 0.5 0 0 0 1 0.038 0.1 0 0 0 
1 -1 0 1 0 0 0 0 0 0 1 0 0 
1 -1 0 1 0 0 0 0 0 0 0 0 0 
1 -1 0 1 0 0 0 0 0 0 0 0 0 
1 0 0 1 0 0 0 0 0 0 0 0 0 
1 0 0 -1 0 0 0 0 0 0 0 0 0 
1.04 0.04 1e-05 0.5 0 0 0 1 0.038 0.1 0 0 0 
1 -1 0 1 0 0 0 0 0 0 1 0 0 
1 -1 0 1 0 0 0 0 0 0 0 0 0 
1 -1 0 1 0 0 0 0 0 0 0 0 0 
1 0 0 1 0 0 0 0 0 0 0 0 0 
1 0 0 -1 0 0 0 0 0 0 0 0 0 
0 0 0 0 0 0 0 0 0 0 0 0 0 
1 1 1 30000 0.1 0.1 0.1 
0.01 0.01 0.01 0.01 0.01 0.01 0.01 
VX	 VY	 VZ	 P	 UX	 UY	 UZ	 
0 0 0 

*SubStep
F T 100 1 -1 
100 1e-10 60 20 1e-10
1 0 0 0 0 
3 1 0 0 0 
5245 0 0 0 0 
5705 1 0 0 0 
541 1 0 0 0 
541 1 0 0 0 
23 1 0 0 0 
23 1 0 0 0 
5245 0 0 -17 0 
5705 1 0 -18 0 
541 1 0 -19 0 
541 1 0 -20 0 
23 1 0 -21 0 
23 1 0 -22 0 
99 0 0 0 0 
1.04 0.04 1 3 0.5 2 0 0 0 0 0 0 0 
1 3 0 0 0 0 0 0 0 0 0 0 0 
1.04 0.04 1e-05 0.5 0 0 0 1 0.038 0.1 0 0 0 
1 -1 0 1 0 0 0 0 0 0 1 0 0 
1 -1 0 1 0 0 0 0 0 0 0 0 0 
1 -1 0 1 0 0 0 0 0 0 0 0 0 
1 0 0 1 0 0 0 0 0 0 0 0 0 
1 0 0 -1 0 0 0 0 0 0 0 0 0 
1.04 0.04 1e-05 0.5 0 0 0 1 0.038 0.1 0 0 0 
1 -1 0 1 0 0 0 0 0 0 1 0 0 
1 -1 0 1 0 0 0 0 0 0 0 0 0 
1 -1 0 1 0 0 0 0 0 0 0 0 0 
1 0 0 1 0 0 0 0 0 0 0 0 0 
1 0 0 -1 0 0 0 0 0 0 0 0 0 
0 0 0 0 0 0 0 0 0 0 0 0 0 
1 1 1 30000 0.1 0.1 0.1 
0.01 0.01 0.01 0.01 0.01 0.01 0.01 
VX	 VY	 VZ	 P	 UX	 UY	 UZ	 
0 0 0 

*SubStep
T F 100 1 0 
1 0 0 0 0 
3 1 0 0 0 
525 0 0 -23 0 
57 1 0 0 0 
54 1 0 0 0 
54 1 0 0 0 
23 1 0 0 0 
23 1 0 0 0 
525 0 0 -24 0 
57 1 0 0 0 
54 1 0 0 0 
54 1 0 0 0 
23 1 0 0 0 
23 1 0 0 0 
99 0 0 0 0 
1.04 0.04 1 3 0.5 2 0 0 0 0 0 0 0 
1 3 0 0 0 0 0 0 0 0 0 0 0 
1.04 0.04 1e-05 0.5 0 0 0 1 0.038 0.1 0 0 0 
1 -1 0 1 0 0 0 0 0 0 1 0 0 
1 -1 0 1 0 0 0 0 0 0 0 0 0 
1 -1 0 1 0 0 0 0 0 0 0 0 0 
1 0 0 1 0 0 0 0 0 0 0 0 0 
1 0 0 -1 0 0 0 0 0 0 0 0 0 
1.04 0.04 1e-05 0.5 0 0 0 1 0.038 0.1 0 0 0 
1 -1 0 1 0 0 0 0 0 0 1 0 0 
1 -1 0 1 0 0 0 0 0 0 0 0 0 
1 -1 0 1 0 0 0 0 0 0 0 0 0 
1 0 0 1 0 0 0 0 0 0 0 0 0 
1 0 0 -1 0 0 0 0 0 0 0 0 0 
0 0 0 0 0 0 0 0 0 0 0 0 0 
1 1 1 30000 0.1 0.1 0.1 
0.01 0.01 0.01 0.01 0.01 0.01 0.01 
VX	 VY	 VZ	 P	 UX	 UY	 UZ	 
0 0 0 

*LogFile
Log.txt

*Initial Time
0
