*Initial Conditions
0.000000	100000.000000	0.000000	100000.000000	
0.000000	100000.000000	6.605199	100000.000000	
0.000000	100000.000000	6.605199	100000.000000	
0.000000	100000.000000	6.605199	100000.000000	
0.000000	100000.000000	6.605199	100000.000000	
0.000000	100000.000000	0.000000	100000.000000	
0.000000	100000.000000	6.605199	100000.000000	
0.000000	100000.000000	6.605199	100000.000000	
0.000000	100000.000000	6.605199	100000.000000	
0.000000	100000.000000	6.605199	100000.000000	
0.000000	100000.000000	0.000000	100000.000000	
0.000000	100000.000000	3.940814	100000.000000	
0.000000	100000.000000	3.940814	100000.000000	
0.000000	100000.000000	3.940814	100000.000000	
0.000000	100000.000000	0.000000	100000.000000	
0.000000	100000.000000	0.554177	100000.000000	
0.000000	100000.000000	0.554177	100000.000000	
0.000000	100000.000000	0.554177	100000.000000	
0.000000	100000.000000	0.554177	100000.000000	
0.000000	100000.000000	0.000000	100000.000000	
0.000000	100000.000000	0.031416	100000.000000	
0.000000	100000.000000	0.031416	100000.000000	
0.000000	100000.000000	0.031416	100000.000000	
0.000000	100000.000000	0.031416	100000.000000	
0.000000	100000.000000	0.031416	100000.000000	
0.000000	100000.000000	0.031416	100000.000000	
0.000000	100000.000000	0.031416	100000.000000	
0.000000	100000.000000	0.031416	100000.000000	
0.000000	100000.000000	0.031416	100000.000000	
0.000000	100000.000000	0.031416	100000.000000	
0.000000	100000.000000	0.031416	100000.000000	
0.000000	100000.000000	0.031416	100000.000000	
0.000000	100000.000000	0.031416	100000.000000	
0.000000	100000.000000	0.031416	100000.000000	
0.000000	100000.000000	0.031416	100000.000000	
0.000000	100000.000000	0.031416	100000.000000	
0.000000	100000.000000	0.000000	100000.000000	
0.000000	100000.000000	0.502655	100000.000000	
0.000000	100000.000000	0.502655	100000.000000	
0.000000	100000.000000	0.502655	100000.000000	
0.000000	100000.000000	0.502655	100000.000000	
0.000000	100000.000000	0.502655	100000.000000	
0.000000	100000.000000	0.502655	100000.000000	
0.000000	100000.000000	0.502655	100000.000000	
0.000000	100000.000000	0.502655	100000.000000	
0.000000	100000.000000	0.000000	100000.000000	
0.000000	100000.000000	0.031416	100000.000000	
0.000000	100000.000000	0.031416	100000.000000	
0.000000	100000.000000	0.031416	100000.000000	
0.000000	100000.000000	0.031416	100000.000000	
0.000000	100000.000000	0.031416	100000.000000	
0.000000	100000.000000	0.031416	100000.000000	
0.000000	100000.000000	0.000000	100000.000000	
0.000000	100000.000000	0.407150	100000.000000	
0.000000	100000.000000	0.407150	100000.000000	
0.000000	100000.000000	0.407150	100000.000000	
0.000000	100000.000000	0.407150	100000.000000	
0.000000	100000.000000	0.407150	100000.000000	
0.000000	100000.000000	0.407150	100000.000000	
0.000000	100000.000000	0.407150	100000.000000	
0.000000	100000.000000	0.000000	100000.000000	
0.000000	100000.000000	0.070686	100000.000000	
0.000000	100000.000000	0.070686	100000.000000	
0.000000	100000.000000	0.070686	100000.000000	
0.000000	100000.000000	0.070686	100000.000000	
0.000000	100000.000000	0.000000	100000.000000	
0.000000	100000.000000	0.301907	100000.000000	
0.000000	100000.000000	0.301907	100000.000000	
0.000000	100000.000000	0.301907	100000.000000	
0.000000	100000.000000	0.301907	100000.000000	
0.000000	100000.000000	0.301907	100000.000000	
0.000000	100000.000000	0.301907	100000.000000	
0.000000	100000.000000	0.301907	100000.000000	
0.000000	100000.000000	0.000000	100000.000000	
0.000000	100000.000000	0.246301	100000.000000	
0.000000	100000.000000	0.246301	100000.000000	
0.000000	100000.000000	0.246301	100000.000000	
0.000000	100000.000000	0.246301	100000.000000	
0.000000	100000.000000	0.246301	100000.000000	
0.000000	100000.000000	0.246301	100000.000000	
0.000000	100000.000000	0.246301	100000.000000	
0.000000	100000.000000	0.000000	100000.000000	
0.000000	100000.000000	0.070686	100000.000000	
0.000000	100000.000000	0.070686	100000.000000	
0.000000	100000.000000	0.070686	100000.000000	
0.000000	100000.000000	0.070686	100000.000000	
0.000000	100000.000000	0.070686	100000.000000	
0.000000	100000.000000	0.070686	100000.000000	
0.000000	100000.000000	0.070686	100000.000000	
0.000000	100000.000000	0.070686	100000.000000	
0.000000	100000.000000	0.070686	100000.000000	
0.000000	100000.000000	0.070686	100000.000000	
0.000000	100000.000000	0.070686	100000.000000	
0.000000	100000.000000	0.070686	100000.000000	
0.000000	100000.000000	0.070686	100000.000000	
0.000000	100000.000000	0.070686	100000.000000	
0.000000	100000.000000	0.070686	100000.000000	
0.000000	100000.000000	0.070686	100000.000000	
0.000000	100000.000000	0.000000	100000.000000	
0.000000	100000.000000	0.212372	100000.000000	
0.000000	100000.000000	0.212372	100000.000000	
0.000000	100000.000000	0.212372	100000.000000	
0.000000	100000.000000	0.212372	100000.000000	
0.000000	100000.000000	0.212372	100000.000000	
0.000000	100000.000000	0.212372	100000.000000	
0.000000	100000.000000	0.212372	100000.000000	
0.000000	100000.000000	0.000000	100000.000000	
0.000000	100000.000000	0.196350	100000.000000	
0.000000	100000.000000	0.196350	100000.000000	
0.000000	100000.000000	0.196350	100000.000000	
0.000000	100000.000000	0.196350	100000.000000	
0.000000	100000.000000	0.196350	100000.000000	
0.000000	100000.000000	0.196350	100000.000000	
0.000000	100000.000000	0.196350	100000.000000	
0.000000	100000.000000	0.000000	100000.000000	
0.000000	100000.000000	0.011310	100000.000000	
0.000000	100000.000000	0.011310	100000.000000	
0.000000	100000.000000	0.011310	100000.000000	
0.000000	100000.000000	0.011310	100000.000000	
0.000000	100000.000000	0.011310	100000.000000	
0.000000	100000.000000	0.011310	100000.000000	
0.000000	100000.000000	0.000000	100000.000000	
0.000000	100000.000000	0.180956	100000.000000	
0.000000	100000.000000	0.180956	100000.000000	
0.000000	100000.000000	0.180956	100000.000000	
0.000000	100000.000000	0.180956	100000.000000	
0.000000	100000.000000	0.180956	100000.000000	
0.000000	100000.000000	0.180956	100000.000000	
0.000000	100000.000000	0.000000	100000.000000	
0.000000	100000.000000	0.138544	100000.000000	
0.000000	100000.000000	0.138544	100000.000000	
0.000000	100000.000000	0.138544	100000.000000	
0.000000	100000.000000	0.138544	100000.000000	
0.000000	100000.000000	0.138544	100000.000000	
0.000000	100000.000000	0.138544	100000.000000	
0.000000	100000.000000	0.138544	100000.000000	
0.000000	100000.000000	0.138544	100000.000000	
0.000000	100000.000000	0.000000	100000.000000	
0.000000	100000.000000	0.113411	100000.000000	
0.000000	100000.000000	0.113411	100000.000000	
0.000000	100000.000000	0.113411	100000.000000	
0.000000	100000.000000	0.113411	100000.000000	
0.000000	100000.000000	0.113411	100000.000000	
0.000000	100000.000000	0.113411	100000.000000	
0.000000	100000.000000	0.113411	100000.000000	
0.000000	100000.000000	0.113411	100000.000000	
0.000000	100000.000000	0.113411	100000.000000	
0.000000	100000.000000	0.113411	100000.000000	
0.000000	100000.000000	0.113411	100000.000000	
0.000000	100000.000000	0.113411	100000.000000	
0.000000	100000.000000	0.113411	100000.000000	
0.000000	100000.000000	0.113411	100000.000000	
0.000000	100000.000000	0.113411	100000.000000	
0.000000	100000.000000	0.113411	100000.000000	
0.000000	100000.000000	0.113411	100000.000000	
0.000000	100000.000000	0.000000	100000.000000	
0.000000	100000.000000	0.025447	100000.000000	
0.000000	100000.000000	0.025447	100000.000000	
0.000000	100000.000000	0.025447	100000.000000	
0.000000	100000.000000	0.025447	100000.000000	
0.000000	100000.000000	0.025447	100000.000000	
0.000000	100000.000000	0.025447	100000.000000	
0.000000	100000.000000	0.025447	100000.000000	
0.000000	100000.000000	0.025447	100000.000000	
0.000000	100000.000000	0.025447	100000.000000	
0.000000	100000.000000	0.000000	100000.000000	
0.000000	100000.000000	0.080425	100000.000000	
0.000000	100000.000000	0.080425	100000.000000	
0.000000	100000.000000	0.080425	100000.000000	
0.000000	100000.000000	0.080425	100000.000000	
0.000000	100000.000000	0.080425	100000.000000	
0.000000	100000.000000	0.080425	100000.000000	
0.000000	100000.000000	0.080425	100000.000000	
0.000000	100000.000000	0.080425	100000.000000	
0.000000	100000.000000	0.080425	100000.000000	
0.000000	100000.000000	0.080425	100000.000000	
0.000000	100000.000000	0.080425	100000.000000	
0.000000	100000.000000	0.080425	100000.000000	
0.000000	100000.000000	0.080425	100000.000000	
0.000000	100000.000000	0.080425	100000.000000	
0.000000	100000.000000	0.080425	100000.000000	
0.000000	100000.000000	0.080425	100000.000000	
0.000000	100000.000000	0.080425	100000.000000	
0.000000	100000.000000	0.080425	100000.000000	
0.000000	100000.000000	0.080425	100000.000000	
0.000000	100000.000000	0.080425	100000.000000	
0.000000	100000.000000	0.080425	100000.000000	
0.000000	100000.000000	0.080425	100000.000000	
0.000000	100000.000000	0.080425	100000.000000	
0.000000	100000.000000	0.080425	100000.000000	
0.000000	100000.000000	0.080425	100000.000000	
0.000000	100000.000000	0.000000	100000.000000	
0.000000	100000.000000	0.015394	100000.000000	
0.000000	100000.000000	0.015394	100000.000000	
0.000000	100000.000000	0.015394	100000.000000	
0.000000	100000.000000	0.015394	100000.000000	
0.000000	100000.000000	0.015394	100000.000000	
0.000000	100000.000000	0.015394	100000.000000	
0.000000	100000.000000	0.000000	100000.000000	
0.000000	100000.000000	0.031416	100000.000000	
0.000000	100000.000000	0.031416	100000.000000	
0.000000	100000.000000	0.031416	100000.000000	
0.000000	100000.000000	0.031416	100000.000000	
0.000000	100000.000000	0.031416	100000.000000	
0.000000	100000.000000	0.031416	100000.000000	
0.000000	100000.000000	0.000000	100000.000000	
0.000000	100000.000000	0.070686	100000.000000	
0.000000	100000.000000	0.070686	100000.000000	
0.000000	100000.000000	0.070686	100000.000000	
0.000000	100000.000000	0.070686	100000.000000	
0.000000	100000.000000	0.070686	100000.000000	
0.000000	100000.000000	0.070686	100000.000000	
0.000000	100000.000000	0.070686	100000.000000	
0.000000	100000.000000	0.070686	100000.000000	
0.000000	100000.000000	0.070686	100000.000000	
0.000000	100000.000000	0.000000	100000.000000	
0.000000	100000.000000	0.125664	100000.000000	
0.000000	100000.000000	0.125664	100000.000000	
0.000000	100000.000000	0.125664	100000.000000	
0.000000	100000.000000	0.125664	100000.000000	
0.000000	100000.000000	0.125664	100000.000000	
0.000000	100000.000000	0.125664	100000.000000	
0.000000	100000.000000	0.125664	100000.000000	
0.000000	100000.000000	0.125664	100000.000000	
0.000000	100000.000000	0.125664	100000.000000	
0.000000	100000.000000	0.125664	100000.000000	
0.000000	100000.000000	0.125664	100000.000000	
0.000000	100000.000000	0.000000	100000.000000	
0.000000	100000.000000	0.031416	100000.000000	
0.000000	100000.000000	0.031416	100000.000000	
0.000000	100000.000000	0.031416	100000.000000	
0.000000	100000.000000	0.031416	100000.000000	
0.000000	100000.000000	0.031416	100000.000000	
0.000000	100000.000000	0.031416	100000.000000	
0.000000	100000.000000	0.000000	100000.000000	
0.000000	100000.000000	0.113411	100000.000000	
0.000000	100000.000000	0.113411	100000.000000	
0.000000	100000.000000	0.113411	100000.000000	
0.000000	100000.000000	0.113411	100000.000000	
0.000000	100000.000000	0.113411	100000.000000	
0.000000	100000.000000	0.113411	100000.000000	
0.000000	100000.000000	0.113411	100000.000000	
0.000000	100000.000000	0.113411	100000.000000	
0.000000	100000.000000	0.113411	100000.000000	
0.000000	100000.000000	0.113411	100000.000000	
0.000000	100000.000000	0.113411	100000.000000	
0.000000	100000.000000	0.113411	100000.000000	
0.000000	100000.000000	0.113411	100000.000000	
0.000000	100000.000000	0.113411	100000.000000	
0.000000	100000.000000	0.113411	100000.000000	
0.000000	100000.000000	0.113411	100000.000000	
0.000000	100000.000000	0.000000	100000.000000	
0.000000	100000.000000	0.430084	100000.000000	
0.000000	100000.000000	0.430084	100000.000000	
0.000000	100000.000000	0.430084	100000.000000	
0.000000	100000.000000	0.430084	100000.000000	
0.000000	100000.000000	0.430084	100000.000000	
0.000000	100000.000000	0.430084	100000.000000	
0.000000	100000.000000	0.430084	100000.000000	
0.000000	100000.000000	0.430084	100000.000000	
0.000000	100000.000000	0.430084	100000.000000	
0.000000	100000.000000	0.430084	100000.000000	
0.000000	100000.000000	0.430084	100000.000000	
0.000000	100000.000000	0.430084	100000.000000	
0.000000	100000.000000	0.430084	100000.000000	
0.000000	100000.000000	0.430084	100000.000000	
0.000000	100000.000000	0.430084	100000.000000	
0.000000	100000.000000	0.430084	100000.000000	
0.000000	100000.000000	0.430084	100000.000000	
0.000000	100000.000000	0.430084	100000.000000	
0.000000	100000.000000	0.430084	100000.000000	
0.000000	100000.000000	0.430084	100000.000000	
0.000000	100000.000000	0.430084	100000.000000	
0.000000	100000.000000	0.430084	100000.000000	
0.000000	100000.000000	0.000000	100000.000000	
0.000000	100000.000000	0.101788	100000.000000	
0.000000	100000.000000	0.101788	100000.000000	
0.000000	100000.000000	0.101788	100000.000000	
0.000000	100000.000000	0.101788	100000.000000	
0.000000	100000.000000	0.101788	100000.000000	
0.000000	100000.000000	0.101788	100000.000000	
0.000000	100000.000000	0.101788	100000.000000	
0.000000	100000.000000	0.000000	100000.000000	
0.000000	100000.000000	0.031416	100000.000000	
0.000000	100000.000000	0.031416	100000.000000	
0.000000	100000.000000	0.031416	100000.000000	
0.000000	100000.000000	0.031416	100000.000000	
0.000000	100000.000000	0.000000	100000.000000	
0.000000	100000.000000	0.053093	100000.000000	
0.000000	100000.000000	0.053093	100000.000000	
0.000000	100000.000000	0.053093	100000.000000	
0.000000	100000.000000	0.053093	100000.000000	
0.000000	100000.000000	0.053093	100000.000000	
0.000000	100000.000000	0.053093	100000.000000	
0.000000	100000.000000	0.053093	100000.000000	
0.000000	100000.000000	0.000000	100000.000000	
0.000000	100000.000000	0.020106	100000.000000	
0.000000	100000.000000	0.020106	100000.000000	
0.000000	100000.000000	0.020106	100000.000000	
0.000000	100000.000000	0.020106	100000.000000	
0.000000	100000.000000	0.020106	100000.000000	
0.000000	100000.000000	0.020106	100000.000000	
0.000000	100000.000000	0.020106	100000.000000	
0.000000	100000.000000	0.000000	100000.000000	
0.000000	100000.000000	0.011310	100000.000000	
0.000000	100000.000000	0.011310	100000.000000	
0.000000	100000.000000	0.011310	100000.000000	
0.000000	100000.000000	0.011310	100000.000000	
0.000000	100000.000000	0.011310	100000.000000	
0.000000	100000.000000	0.000000	100000.000000	
0.000000	100000.000000	0.015394	100000.000000	
0.000000	100000.000000	0.015394	100000.000000	
0.000000	100000.000000	0.015394	100000.000000	
0.000000	100000.000000	0.015394	100000.000000	
0.000000	100000.000000	0.015394	100000.000000	
0.000000	100000.000000	0.015394	100000.000000	
0.000000	100000.000000	0.000000	100000.000000	
0.000000	100000.000000	0.031416	100000.000000	
0.000000	100000.000000	0.031416	100000.000000	
0.000000	100000.000000	0.031416	100000.000000	
0.000000	100000.000000	0.031416	100000.000000	
0.000000	100000.000000	0.031416	100000.000000	
0.000000	100000.000000	0.000000	100000.000000	
0.000000	100000.000000	0.070686	100000.000000	
0.000000	100000.000000	0.070686	100000.000000	
0.000000	100000.000000	0.070686	100000.000000	
0.000000	100000.000000	0.070686	100000.000000	
0.000000	100000.000000	0.070686	100000.000000	
0.000000	100000.000000	0.070686	100000.000000	
0.000000	100000.000000	0.070686	100000.000000	
0.000000	100000.000000	0.070686	100000.000000	
0.000000	100000.000000	0.070686	100000.000000	
0.000000	100000.000000	0.070686	100000.000000	
0.000000	100000.000000	0.070686	100000.000000	
0.000000	100000.000000	0.070686	100000.000000	
0.000000	100000.000000	0.070686	100000.000000	
0.000000	100000.000000	0.000000	100000.000000	
0.000000	100000.000000	0.011310	100000.000000	
0.000000	100000.000000	0.011310	100000.000000	
0.000000	100000.000000	0.011310	100000.000000	
0.000000	100000.000000	0.011310	100000.000000	
0.000000	100000.000000	0.000000	100000.000000	
0.000000	100000.000000	0.020106	100000.000000	
0.000000	100000.000000	0.020106	100000.000000	
0.000000	100000.000000	0.020106	100000.000000	
0.000000	100000.000000	0.020106	100000.000000	
0.000000	100000.000000	0.020106	100000.000000	
0.000000	100000.000000	0.020106	100000.000000	
0.000000	100000.000000	0.020106	100000.000000	
0.000000	100000.000000	0.000000	100000.000000	
0.000000	100000.000000	0.015394	100000.000000	
0.000000	100000.000000	0.015394	100000.000000	
0.000000	100000.000000	0.015394	100000.000000	
0.000000	100000.000000	0.015394	100000.000000	
0.000000	100000.000000	0.000000	100000.000000	
0.000000	100000.000000	0.015394	100000.000000	
0.000000	100000.000000	0.015394	100000.000000	
0.000000	100000.000000	0.015394	100000.000000	
0.000000	100000.000000	0.015394	100000.000000	
0.000000	100000.000000	0.015394	100000.000000	
0.000000	100000.000000	0.000000	100000.000000	
0.000000	100000.000000	3.596810	100000.000000	
0.000000	100000.000000	3.596810	100000.000000	
0.000000	100000.000000	3.596810	100000.000000	
0.000000	100000.000000	3.596810	100000.000000	
0.000000	100000.000000	3.596810	100000.000000	
0.000000	100000.000000	0.000000	100000.000000	
0.000000	100000.000000	3.141593	100000.000000	
0.000000	100000.000000	3.141593	100000.000000	
0.000000	100000.000000	3.141593	100000.000000	
0.000000	100000.000000	3.141593	100000.000000	
0.000000	100000.000000	3.141593	100000.000000	
0.000000	100000.000000	3.141593	100000.000000	
0.000000	100000.000000	0.000000	100000.000000	
0.000000	100000.000000	2.835287	100000.000000	
0.000000	100000.000000	2.835287	100000.000000	
0.000000	100000.000000	2.835287	100000.000000	
0.000000	100000.000000	2.835287	100000.000000	
0.000000	100000.000000	2.835287	100000.000000	
0.000000	100000.000000	2.835287	100000.000000	
0.000000	100000.000000	2.835287	100000.000000	
0.000000	100000.000000	2.835287	100000.000000	
0.000000	100000.000000	2.835287	100000.000000	
0.000000	100000.000000	2.835287	100000.000000	
0.000000	100000.000000	2.835287	100000.000000	
0.000000	100000.000000	0.000000	100000.000000	
0.000000	100000.000000	0.477836	100000.000000	
0.000000	100000.000000	0.477836	100000.000000	
0.000000	100000.000000	0.000000	100000.000000	
0.000000	100000.000000	0.101788	100000.000000	
0.000000	100000.000000	0.101788	100000.000000	
0.000000	100000.000000	0.101788	100000.000000	
0.000000	100000.000000	0.101788	100000.000000	
0.000000	100000.000000	0.101788	100000.000000	
0.000000	100000.000000	0.101788	100000.000000	
0.000000	100000.000000	0.101788	100000.000000	
0.000000	100000.000000	0.101788	100000.000000	
0.000000	100000.000000	0.000000	100000.000000	
0.000000	100000.000000	0.246301	100000.000000	
0.000000	100000.000000	0.246301	100000.000000	
0.000000	100000.000000	0.246301	100000.000000	
0.000000	100000.000000	0.246301	100000.000000	
0.000000	100000.000000	0.246301	100000.000000	
0.000000	100000.000000	0.246301	100000.000000	
0.000000	100000.000000	0.246301	100000.000000	
0.000000	100000.000000	0.000000	100000.000000	
0.000000	100000.000000	0.152053	100000.000000	
0.000000	100000.000000	0.152053	100000.000000	
0.000000	100000.000000	0.152053	100000.000000	
0.000000	100000.000000	0.152053	100000.000000	
0.000000	100000.000000	0.152053	100000.000000	
0.000000	100000.000000	0.152053	100000.000000	
0.000000	100000.000000	0.152053	100000.000000	
0.000000	100000.000000	0.152053	100000.000000	
0.000000	100000.000000	0.000000	100000.000000	
0.000000	100000.000000	2.377872	100000.000000	
0.000000	100000.000000	2.377872	100000.000000	
0.000000	100000.000000	2.377872	100000.000000	
0.000000	100000.000000	2.377872	100000.000000	
0.000000	100000.000000	2.377872	100000.000000	
0.000000	100000.000000	2.377872	100000.000000	
0.000000	100000.000000	0.000000	100000.000000	
0.000000	100000.000000	0.212372	100000.000000	
0.000000	100000.000000	0.212372	100000.000000	
0.000000	100000.000000	0.212372	100000.000000	
0.000000	100000.000000	0.212372	100000.000000	
0.000000	100000.000000	0.000000	100000.000000	
0.000000	100000.000000	1.020703	100000.000000	
0.000000	100000.000000	1.020703	100000.000000	
0.000000	100000.000000	1.020703	100000.000000	
0.000000	100000.000000	1.020703	100000.000000	
0.000000	100000.000000	1.020703	100000.000000	
0.000000	100000.000000	1.020703	100000.000000	
0.000000	100000.000000	1.020703	100000.000000	
0.000000	100000.000000	1.020703	100000.000000	
0.000000	100000.000000	1.020703	100000.000000	
0.000000	100000.000000	1.020703	100000.000000	
0.000000	100000.000000	1.020703	100000.000000	
0.000000	100000.000000	0.000000	100000.000000	
0.000000	100000.000000	0.849487	100000.000000	
0.000000	100000.000000	0.849487	100000.000000	
0.000000	100000.000000	0.849487	100000.000000	
0.000000	100000.000000	0.849487	100000.000000	
0.000000	100000.000000	0.849487	100000.000000	
0.000000	100000.000000	0.849487	100000.000000	
0.000000	100000.000000	0.849487	100000.000000	
0.000000	100000.000000	0.000000	100000.000000	
0.000000	100000.000000	0.264208	100000.000000	
0.000000	100000.000000	0.264208	100000.000000	
0.000000	100000.000000	0.264208	100000.000000	
0.000000	100000.000000	0.264208	100000.000000	
0.000000	100000.000000	0.264208	100000.000000	
0.000000	100000.000000	0.264208	100000.000000	
0.000000	100000.000000	0.264208	100000.000000	
0.000000	100000.000000	0.264208	100000.000000	
0.000000	100000.000000	0.264208	100000.000000	
0.000000	100000.000000	0.000000	100000.000000	
0.000000	100000.000000	0.229022	100000.000000	
0.000000	100000.000000	0.229022	100000.000000	
0.000000	100000.000000	0.229022	100000.000000	
0.000000	100000.000000	0.229022	100000.000000	
0.000000	100000.000000	0.229022	100000.000000	
0.000000	100000.000000	0.229022	100000.000000	
0.000000	100000.000000	0.229022	100000.000000	
0.000000	100000.000000	0.000000	100000.000000	
0.000000	100000.000000	0.180956	100000.000000	
0.000000	100000.000000	0.180956	100000.000000	
0.000000	100000.000000	0.180956	100000.000000	
0.000000	100000.000000	0.180956	100000.000000	
0.000000	100000.000000	0.180956	100000.000000	
0.000000	100000.000000	0.180956	100000.000000	
0.000000	100000.000000	0.180956	100000.000000	
0.000000	100000.000000	0.180956	100000.000000	
0.000000	100000.000000	0.180956	100000.000000	
0.000000	100000.000000	0.180956	100000.000000	
0.000000	100000.000000	0.180956	100000.000000	
0.000000	100000.000000	0.180956	100000.000000	
0.000000	100000.000000	0.180956	100000.000000	
0.000000	100000.000000	0.180956	100000.000000	
0.000000	100000.000000	0.180956	100000.000000	
0.000000	100000.000000	0.180956	100000.000000	
0.000000	100000.000000	0.180956	100000.000000	
0.000000	100000.000000	0.180956	100000.000000	
0.000000	100000.000000	0.180956	100000.000000	
0.000000	100000.000000	0.180956	100000.000000	
0.000000	100000.000000	0.180956	100000.000000	
0.000000	100000.000000	0.180956	100000.000000	
0.000000	100000.000000	0.180956	100000.000000	
0.000000	100000.000000	0.180956	100000.000000	
0.000000	100000.000000	0.180956	100000.000000	
0.000000	100000.000000	0.180956	100000.000000	
0.000000	100000.000000	0.180956	100000.000000	
0.000000	100000.000000	0.000000	100000.000000	
0.000000	100000.000000	0.125664	100000.000000	
0.000000	100000.000000	0.125664	100000.000000	
0.000000	100000.000000	0.125664	100000.000000	
0.000000	100000.000000	0.125664	100000.000000	
0.000000	100000.000000	0.125664	100000.000000	
0.000000	100000.000000	0.125664	100000.000000	
0.000000	100000.000000	0.125664	100000.000000	
0.000000	100000.000000	0.125664	100000.000000	
0.000000	100000.000000	0.125664	100000.000000	
0.000000	100000.000000	0.125664	100000.000000	
0.000000	100000.000000	0.000000	100000.000000	
0.000000	100000.000000	0.125664	100000.000000	
0.000000	100000.000000	0.125664	100000.000000	
0.000000	100000.000000	0.125664	100000.000000	
0.000000	100000.000000	0.125664	100000.000000	
0.000000	100000.000000	0.125664	100000.000000	
0.000000	100000.000000	0.125664	100000.000000	
0.000000	100000.000000	0.125664	100000.000000	
0.000000	100000.000000	0.125664	100000.000000	
0.000000	100000.000000	0.125664	100000.000000	
0.000000	100000.000000	0.125664	100000.000000	
0.000000	100000.000000	0.000000	100000.000000	
0.000000	100000.000000	0.053093	100000.000000	
0.000000	100000.000000	0.053093	100000.000000	
0.000000	100000.000000	0.053093	100000.000000	
0.000000	100000.000000	0.000000	100000.000000	
0.000000	100000.000000	0.031416	100000.000000	
0.000000	100000.000000	0.031416	100000.000000	
0.000000	100000.000000	0.031416	100000.000000	
0.000000	100000.000000	0.031416	100000.000000	
0.000000	100000.000000	0.031416	100000.000000	
0.000000	100000.000000	0.031416	100000.000000	
0.000000	100000.000000	0.031416	100000.000000	
0.000000	100000.000000	0.031416	100000.000000	
0.000000	100000.000000	0.031416	100000.000000	
0.000000	100000.000000	0.031416	100000.000000	
0.000000	100000.000000	0.031416	100000.000000	
0.000000	100000.000000	0.031416	100000.000000	
0.000000	100000.000000	0.031416	100000.000000	
0.000000	100000.000000	0.031416	100000.000000	
0.000000	100000.000000	0.031416	100000.000000	
0.000000	100000.000000	0.031416	100000.000000	
0.000000	100000.000000	0.031416	100000.000000	
0.000000	100000.000000	0.031416	100000.000000	
0.000000	100000.000000	0.031416	100000.000000	
0.000000	100000.000000	0.031416	100000.000000	
0.000000	100000.000000	0.031416	100000.000000	
0.000000	100000.000000	0.031416	100000.000000	
0.000000	100000.000000	0.031416	100000.000000	
0.000000	100000.000000	0.031416	100000.000000	
0.000000	100000.000000	0.031416	100000.000000	
0.000000	100000.000000	0.031416	100000.000000	
0.000000	100000.000000	0.031416	100000.000000	
0.000000	100000.000000	0.031416	100000.000000	
0.000000	100000.000000	0.031416	100000.000000	
0.000000	100000.000000	0.031416	100000.000000	
0.000000	100000.000000	0.031416	100000.000000	
0.000000	100000.000000	0.000000	100000.000000	
0.000000	100000.000000	0.053093	100000.000000	
0.000000	100000.000000	0.053093	100000.000000	
0.000000	100000.000000	0.053093	100000.000000	
0.000000	100000.000000	0.053093	100000.000000	
0.000000	100000.000000	0.053093	100000.000000	
0.000000	100000.000000	0.053093	100000.000000	
0.000000	100000.000000	0.053093	100000.000000	
0.000000	100000.000000	0.053093	100000.000000	
0.000000	100000.000000	0.053093	100000.000000	
0.000000	100000.000000	0.053093	100000.000000	
0.000000	100000.000000	0.053093	100000.000000	
0.000000	100000.000000	0.053093	100000.000000	
0.000000	100000.000000	0.053093	100000.000000	
0.000000	100000.000000	0.053093	100000.000000	
0.000000	100000.000000	0.053093	100000.000000	
0.000000	100000.000000	0.053093	100000.000000	
0.000000	100000.000000	0.053093	100000.000000	
0.000000	100000.000000	0.000000	100000.000000	
0.000000	100000.000000	0.053093	100000.000000	
0.000000	100000.000000	0.053093	100000.000000	
0.000000	100000.000000	0.053093	100000.000000	
0.000000	100000.000000	0.053093	100000.000000	
0.000000	100000.000000	0.053093	100000.000000	
0.000000	100000.000000	0.053093	100000.000000	
0.000000	100000.000000	0.053093	100000.000000	
0.000000	100000.000000	0.053093	100000.000000	
0.000000	100000.000000	0.053093	100000.000000	
0.000000	100000.000000	0.053093	100000.000000	
0.000000	100000.000000	0.053093	100000.000000	
0.000000	100000.000000	0.053093	100000.000000	
0.000000	100000.000000	0.053093	100000.000000	
0.000000	100000.000000	0.053093	100000.000000	
0.000000	100000.000000	0.053093	100000.000000	
0.000000	100000.000000	0.053093	100000.000000	
0.000000	100000.000000	0.053093	100000.000000	
0.000000	100000.000000	0.000000	100000.000000	
0.000000	100000.000000	0.101788	100000.000000	
0.000000	100000.000000	0.101788	100000.000000	
0.000000	100000.000000	0.101788	100000.000000	
0.000000	100000.000000	0.101788	100000.000000	
0.000000	100000.000000	0.101788	100000.000000	
0.000000	100000.000000	0.101788	100000.000000	
0.000000	100000.000000	0.101788	100000.000000	
0.000000	100000.000000	0.101788	100000.000000	
0.000000	100000.000000	0.101788	100000.000000	
0.000000	100000.000000	0.101788	100000.000000	
0.000000	100000.000000	0.101788	100000.000000	
0.000000	100000.000000	0.101788	100000.000000	
0.000000	100000.000000	0.101788	100000.000000	
0.000000	100000.000000	0.101788	100000.000000	
0.000000	100000.000000	0.101788	100000.000000	
0.000000	100000.000000	0.101788	100000.000000	
0.000000	100000.000000	0.101788	100000.000000	
0.000000	100000.000000	0.101788	100000.000000	
0.000000	100000.000000	0.101788	100000.000000	
0.000000	100000.000000	0.101788	100000.000000	
0.000000	100000.000000	0.101788	100000.000000	
0.000000	100000.000000	0.101788	100000.000000	
0.000000	100000.000000	0.101788	100000.000000	
0.000000	100000.000000	0.101788	100000.000000	
0.000000	100000.000000	0.101788	100000.000000	
0.000000	100000.000000	0.101788	100000.000000	
0.000000	100000.000000	0.101788	100000.000000	
0.000000	100000.000000	0.101788	100000.000000	
0.000000	100000.000000	0.101788	100000.000000	
0.000000	100000.000000	0.101788	100000.000000	
0.000000	100000.000000	0.101788	100000.000000	
0.000000	100000.000000	0.101788	100000.000000	
0.000000	100000.000000	0.101788	100000.000000	
0.000000	100000.000000	0.000000	100000.000000	
0.000000	100000.000000	0.166190	100000.000000	
0.000000	100000.000000	0.166190	100000.000000	
0.000000	100000.000000	0.166190	100000.000000	
0.000000	100000.000000	0.166190	100000.000000	
0.000000	100000.000000	0.166190	100000.000000	
0.000000	100000.000000	0.166190	100000.000000	
0.000000	100000.000000	0.166190	100000.000000	
0.000000	100000.000000	0.166190	100000.000000	
0.000000	100000.000000	0.166190	100000.000000	
0.000000	100000.000000	0.166190	100000.000000	
0.000000	100000.000000	0.166190	100000.000000	
0.000000	100000.000000	0.166190	100000.000000	
0.000000	100000.000000	0.166190	100000.000000	
0.000000	100000.000000	0.166190	100000.000000	
0.000000	100000.000000	0.000000	100000.000000	
0.000000	100000.000000	0.125664	100000.000000	
0.000000	100000.000000	0.125664	100000.000000	
0.000000	100000.000000	0.125664	100000.000000	
0.000000	100000.000000	0.125664	100000.000000	
0.000000	100000.000000	0.125664	100000.000000	
0.000000	100000.000000	0.125664	100000.000000	
0.000000	100000.000000	0.000000	100000.000000	
0.000000	100000.000000	0.080425	100000.000000	
0.000000	100000.000000	0.080425	100000.000000	
0.000000	100000.000000	0.080425	100000.000000	
0.000000	100000.000000	0.080425	100000.000000	
0.000000	100000.000000	0.080425	100000.000000	
0.000000	100000.000000	0.080425	100000.000000	
0.000000	100000.000000	0.000000	100000.000000	
0.000000	100000.000000	0.849487	100000.000000	
0.000000	100000.000000	0.849487	100000.000000	
0.000000	100000.000000	0.849487	100000.000000	
0.000000	100000.000000	0.849487	100000.000000	
0.000000	100000.000000	0.849487	100000.000000	
0.000000	100000.000000	0.849487	100000.000000	
0.000000	100000.000000	0.849487	100000.000000	
0.000000	100000.000000	0.000000	100000.000000	
0.000000	100000.000000	0.125664	100000.000000	
0.000000	100000.000000	0.125664	100000.000000	
0.000000	100000.000000	0.125664	100000.000000	
0.000000	100000.000000	0.125664	100000.000000	
0.000000	100000.000000	0.125664	100000.000000	
0.000000	100000.000000	0.125664	100000.000000	
0.000000	100000.000000	0.000000	100000.000000	
0.000000	100000.000000	0.264208	100000.000000	
0.000000	100000.000000	0.264208	100000.000000	
0.000000	100000.000000	0.264208	100000.000000	
0.000000	100000.000000	0.264208	100000.000000	
0.000000	100000.000000	0.264208	100000.000000	
0.000000	100000.000000	0.264208	100000.000000	
0.000000	100000.000000	0.264208	100000.000000	
0.000000	100000.000000	0.264208	100000.000000	
0.000000	100000.000000	0.264208	100000.000000	
0.000000	100000.000000	0.000000	100000.000000	
0.000000	100000.000000	0.229022	100000.000000	
0.000000	100000.000000	0.229022	100000.000000	
0.000000	100000.000000	0.229022	100000.000000	
0.000000	100000.000000	0.229022	100000.000000	
0.000000	100000.000000	0.229022	100000.000000	
0.000000	100000.000000	0.229022	100000.000000	
0.000000	100000.000000	0.229022	100000.000000	
0.000000	100000.000000	0.000000	100000.000000	
0.000000	100000.000000	0.166190	100000.000000	
0.000000	100000.000000	0.166190	100000.000000	
0.000000	100000.000000	0.166190	100000.000000	
0.000000	100000.000000	0.166190	100000.000000	
0.000000	100000.000000	0.166190	100000.000000	
0.000000	100000.000000	0.166190	100000.000000	
0.000000	100000.000000	0.166190	100000.000000	
0.000000	100000.000000	0.166190	100000.000000	
0.000000	100000.000000	0.166190	100000.000000	
0.000000	100000.000000	0.166190	100000.000000	
0.000000	100000.000000	0.166190	100000.000000	
0.000000	100000.000000	0.166190	100000.000000	
0.000000	100000.000000	0.166190	100000.000000	
0.000000	100000.000000	0.166190	100000.000000	
0.000000	100000.000000	0.000000	100000.000000	
0.000000	100000.000000	0.180956	100000.000000	
0.000000	100000.000000	0.180956	100000.000000	
0.000000	100000.000000	0.180956	100000.000000	
0.000000	100000.000000	0.180956	100000.000000	
0.000000	100000.000000	0.180956	100000.000000	
0.000000	100000.000000	0.180956	100000.000000	
0.000000	100000.000000	0.180956	100000.000000	
0.000000	100000.000000	0.180956	100000.000000	
0.000000	100000.000000	0.180956	100000.000000	
0.000000	100000.000000	0.180956	100000.000000	
0.000000	100000.000000	0.180956	100000.000000	
0.000000	100000.000000	0.180956	100000.000000	
0.000000	100000.000000	0.180956	100000.000000	
0.000000	100000.000000	0.180956	100000.000000	
0.000000	100000.000000	0.180956	100000.000000	
0.000000	100000.000000	0.180956	100000.000000	
0.000000	100000.000000	0.180956	100000.000000	
0.000000	100000.000000	0.180956	100000.000000	
0.000000	100000.000000	0.180956	100000.000000	
0.000000	100000.000000	0.180956	100000.000000	
0.000000	100000.000000	0.180956	100000.000000	
0.000000	100000.000000	0.180956	100000.000000	
0.000000	100000.000000	0.180956	100000.000000	
0.000000	100000.000000	0.180956	100000.000000	
0.000000	100000.000000	0.180956	100000.000000	
0.000000	100000.000000	0.180956	100000.000000	
0.000000	100000.000000	0.180956	100000.000000	
0.000000	100000.000000	0.000000	100000.000000	
0.000000	100000.000000	0.125664	100000.000000	
0.000000	100000.000000	0.125664	100000.000000	
0.000000	100000.000000	0.125664	100000.000000	
0.000000	100000.000000	0.125664	100000.000000	
0.000000	100000.000000	0.125664	100000.000000	
0.000000	100000.000000	0.125664	100000.000000	
0.000000	100000.000000	0.125664	100000.000000	
0.000000	100000.000000	0.125664	100000.000000	
0.000000	100000.000000	0.125664	100000.000000	
0.000000	100000.000000	0.125664	100000.000000	
0.000000	100000.000000	0.000000	100000.000000	
0.000000	100000.000000	0.125664	100000.000000	
0.000000	100000.000000	0.125664	100000.000000	
0.000000	100000.000000	0.125664	100000.000000	
0.000000	100000.000000	0.125664	100000.000000	
0.000000	100000.000000	0.125664	100000.000000	
0.000000	100000.000000	0.125664	100000.000000	
0.000000	100000.000000	0.125664	100000.000000	
0.000000	100000.000000	0.125664	100000.000000	
0.000000	100000.000000	0.125664	100000.000000	
0.000000	100000.000000	0.125664	100000.000000	
0.000000	100000.000000	0.000000	100000.000000	
0.000000	100000.000000	0.101788	100000.000000	
0.000000	100000.000000	0.101788	100000.000000	
0.000000	100000.000000	0.101788	100000.000000	
0.000000	100000.000000	0.101788	100000.000000	
0.000000	100000.000000	0.101788	100000.000000	
0.000000	100000.000000	0.101788	100000.000000	
0.000000	100000.000000	0.101788	100000.000000	
0.000000	100000.000000	0.101788	100000.000000	
0.000000	100000.000000	0.101788	100000.000000	
0.000000	100000.000000	0.101788	100000.000000	
0.000000	100000.000000	0.101788	100000.000000	
0.000000	100000.000000	0.101788	100000.000000	
0.000000	100000.000000	0.101788	100000.000000	
0.000000	100000.000000	0.101788	100000.000000	
0.000000	100000.000000	0.101788	100000.000000	
0.000000	100000.000000	0.101788	100000.000000	
0.000000	100000.000000	0.101788	100000.000000	
0.000000	100000.000000	0.101788	100000.000000	
0.000000	100000.000000	0.101788	100000.000000	
0.000000	100000.000000	0.101788	100000.000000	
0.000000	100000.000000	0.101788	100000.000000	
0.000000	100000.000000	0.101788	100000.000000	
0.000000	100000.000000	0.101788	100000.000000	
0.000000	100000.000000	0.101788	100000.000000	
0.000000	100000.000000	0.101788	100000.000000	
0.000000	100000.000000	0.101788	100000.000000	
0.000000	100000.000000	0.101788	100000.000000	
0.000000	100000.000000	0.101788	100000.000000	
0.000000	100000.000000	0.101788	100000.000000	
0.000000	100000.000000	0.101788	100000.000000	
0.000000	100000.000000	0.101788	100000.000000	
0.000000	100000.000000	0.101788	100000.000000	
0.000000	100000.000000	0.101788	100000.000000	
0.000000	100000.000000	0.000000	100000.000000	
0.000000	100000.000000	0.053093	100000.000000	
0.000000	100000.000000	0.053093	100000.000000	
0.000000	100000.000000	0.053093	100000.000000	
0.000000	100000.000000	0.000000	100000.000000	
0.000000	100000.000000	0.053093	100000.000000	
0.000000	100000.000000	0.053093	100000.000000	
0.000000	100000.000000	0.053093	100000.000000	
0.000000	100000.000000	0.053093	100000.000000	
0.000000	100000.000000	0.053093	100000.000000	
0.000000	100000.000000	0.053093	100000.000000	
0.000000	100000.000000	0.053093	100000.000000	
0.000000	100000.000000	0.053093	100000.000000	
0.000000	100000.000000	0.053093	100000.000000	
0.000000	100000.000000	0.053093	100000.000000	
0.000000	100000.000000	0.053093	100000.000000	
0.000000	100000.000000	0.053093	100000.000000	
0.000000	100000.000000	0.053093	100000.000000	
0.000000	100000.000000	0.053093	100000.000000	
0.000000	100000.000000	0.053093	100000.000000	
0.000000	100000.000000	0.053093	100000.000000	
0.000000	100000.000000	0.053093	100000.000000	
0.000000	100000.000000	0.000000	100000.000000	
0.000000	100000.000000	0.053093	100000.000000	
0.000000	100000.000000	0.053093	100000.000000	
0.000000	100000.000000	0.053093	100000.000000	
0.000000	100000.000000	0.053093	100000.000000	
0.000000	100000.000000	0.053093	100000.000000	
0.000000	100000.000000	0.053093	100000.000000	
0.000000	100000.000000	0.053093	100000.000000	
0.000000	100000.000000	0.053093	100000.000000	
0.000000	100000.000000	0.053093	100000.000000	
0.000000	100000.000000	0.053093	100000.000000	
0.000000	100000.000000	0.053093	100000.000000	
0.000000	100000.000000	0.053093	100000.000000	
0.000000	100000.000000	0.053093	100000.000000	
0.000000	100000.000000	0.053093	100000.000000	
0.000000	100000.000000	0.053093	100000.000000	
0.000000	100000.000000	0.053093	100000.000000	
0.000000	100000.000000	0.053093	100000.000000	
0.000000	100000.000000	0.000000	100000.000000	
0.000000	100000.000000	0.031416	100000.000000	
0.000000	100000.000000	0.031416	100000.000000	
0.000000	100000.000000	0.031416	100000.000000	
0.000000	100000.000000	0.031416	100000.000000	
0.000000	100000.000000	0.031416	100000.000000	
0.000000	100000.000000	0.031416	100000.000000	
0.000000	100000.000000	0.031416	100000.000000	
0.000000	100000.000000	0.031416	100000.000000	
0.000000	100000.000000	0.031416	100000.000000	
0.000000	100000.000000	0.031416	100000.000000	
0.000000	100000.000000	0.031416	100000.000000	
0.000000	100000.000000	0.031416	100000.000000	
0.000000	100000.000000	0.031416	100000.000000	
0.000000	100000.000000	0.031416	100000.000000	
0.000000	100000.000000	0.031416	100000.000000	
0.000000	100000.000000	0.031416	100000.000000	
0.000000	100000.000000	0.031416	100000.000000	
0.000000	100000.000000	0.031416	100000.000000	
0.000000	100000.000000	0.031416	100000.000000	
0.000000	100000.000000	0.031416	100000.000000	
0.000000	100000.000000	0.031416	100000.000000	
0.000000	100000.000000	0.031416	100000.000000	
0.000000	100000.000000	0.031416	100000.000000	
0.000000	100000.000000	0.031416	100000.000000	
0.000000	100000.000000	0.031416	100000.000000	
0.000000	100000.000000	0.031416	100000.000000	
0.000000	100000.000000	0.031416	100000.000000	
0.000000	100000.000000	0.031416	100000.000000	
0.000000	100000.000000	0.031416	100000.000000	
0.000000	100000.000000	0.031416	100000.000000	
0.000000	100000.000000	0.031416	100000.000000	
0.000000	100000.000000	0.000000	100000.000000	
0.000000	100000.000000	0.580881	100000.000000	
0.000000	100000.000000	0.580881	100000.000000	
0.000000	100000.000000	0.580881	100000.000000	
0.000000	100000.000000	0.580881	100000.000000	
0.000000	100000.000000	0.580881	100000.000000	
0.000000	100000.000000	0.580881	100000.000000	
0.000000	100000.000000	0.580881	100000.000000	
0.000000	100000.000000	0.000000	100000.000000	
0.000000	100000.000000	0.212372	100000.000000	
0.000000	100000.000000	0.212372	100000.000000	
0.000000	100000.000000	0.212372	100000.000000	
0.000000	100000.000000	0.212372	100000.000000	
0.000000	100000.000000	0.000000	100000.000000	
0.000000	100000.000000	1.207628	100000.000000	
0.000000	100000.000000	1.207628	100000.000000	
0.000000	100000.000000	1.207628	100000.000000	
0.000000	100000.000000	1.207628	100000.000000	
0.000000	100000.000000	0.000000	100000.000000	
0.000000	100000.000000	0.430084	100000.000000	
0.000000	100000.000000	0.430084	100000.000000	
0.000000	100000.000000	0.430084	100000.000000	
0.000000	100000.000000	0.430084	100000.000000	
0.000000	100000.000000	0.430084	100000.000000	
0.000000	100000.000000	0.430084	100000.000000	
0.000000	100000.000000	0.430084	100000.000000	
0.000000	100000.000000	0.430084	100000.000000	
0.000000	100000.000000	0.430084	100000.000000	
0.000000	100000.000000	0.430084	100000.000000	
0.000000	100000.000000	0.430084	100000.000000	
0.000000	100000.000000	0.430084	100000.000000	
0.000000	100000.000000	0.430084	100000.000000	
0.000000	100000.000000	0.430084	100000.000000	
0.000000	100000.000000	0.430084	100000.000000	
0.000000	100000.000000	0.430084	100000.000000	
0.000000	100000.000000	0.430084	100000.000000	
0.000000	100000.000000	0.430084	100000.000000	
0.000000	100000.000000	0.430084	100000.000000	
0.000000	100000.000000	0.000000	100000.000000	
0.000000	100000.000000	0.015394	100000.000000	
0.000000	100000.000000	0.015394	100000.000000	
0.000000	100000.000000	0.015394	100000.000000	
0.000000	100000.000000	0.015394	100000.000000	
0.000000	100000.000000	0.015394	100000.000000	
0.000000	100000.000000	0.000000	100000.000000	
0.000000	100000.000000	0.070686	100000.000000	
0.000000	100000.000000	0.070686	100000.000000	
0.000000	100000.000000	0.070686	100000.000000	
0.000000	100000.000000	0.070686	100000.000000	
0.000000	100000.000000	0.070686	100000.000000	
0.000000	100000.000000	0.070686	100000.000000	
0.000000	100000.000000	0.070686	100000.000000	
0.000000	100000.000000	0.070686	100000.000000	
0.000000	100000.000000	0.070686	100000.000000	
0.000000	100000.000000	0.070686	100000.000000	
0.000000	100000.000000	0.070686	100000.000000	
0.000000	100000.000000	0.070686	100000.000000	
0.000000	100000.000000	0.070686	100000.000000	
0.000000	100000.000000	0.000000	100000.000000	
0.000000	100000.000000	0.015394	100000.000000	
0.000000	100000.000000	0.015394	100000.000000	
0.000000	100000.000000	0.015394	100000.000000	
0.000000	100000.000000	0.015394	100000.000000	
0.000000	100000.000000	0.000000	100000.000000	
0.000000	100000.000000	0.020106	100000.000000	
0.000000	100000.000000	0.020106	100000.000000	
0.000000	100000.000000	0.020106	100000.000000	
0.000000	100000.000000	0.020106	100000.000000	
0.000000	100000.000000	0.020106	100000.000000	
0.000000	100000.000000	0.020106	100000.000000	
0.000000	100000.000000	0.020106	100000.000000	
0.000000	100000.000000	0.000000	100000.000000	
0.000000	100000.000000	0.011310	100000.000000	
0.000000	100000.000000	0.011310	100000.000000	
0.000000	100000.000000	0.011310	100000.000000	
0.000000	100000.000000	0.011310	100000.000000	
0.000000	100000.000000	0.000000	100000.000000	
0.000000	100000.000000	0.101788	100000.000000	
0.000000	100000.000000	0.101788	100000.000000	
0.000000	100000.000000	0.101788	100000.000000	
0.000000	100000.000000	0.101788	100000.000000	
0.000000	100000.000000	0.101788	100000.000000	
0.000000	100000.000000	0.101788	100000.000000	
0.000000	100000.000000	0.101788	100000.000000	
0.000000	100000.000000	0.000000	100000.000000	
0.000000	100000.000000	0.031416	100000.000000	
0.000000	100000.000000	0.031416	100000.000000	
0.000000	100000.000000	0.031416	100000.000000	
0.000000	100000.000000	0.031416	100000.000000	
0.000000	100000.000000	0.031416	100000.000000	
0.000000	100000.000000	0.000000	100000.000000	
0.000000	100000.000000	0.053093	100000.000000	
0.000000	100000.000000	0.053093	100000.000000	
0.000000	100000.000000	0.053093	100000.000000	
0.000000	100000.000000	0.053093	100000.000000	
0.000000	100000.000000	0.053093	100000.000000	
0.000000	100000.000000	0.053093	100000.000000	
0.000000	100000.000000	0.053093	100000.000000	
0.000000	100000.000000	0.000000	100000.000000	
0.000000	100000.000000	0.020106	100000.000000	
0.000000	100000.000000	0.020106	100000.000000	
0.000000	100000.000000	0.020106	100000.000000	
0.000000	100000.000000	0.020106	100000.000000	
0.000000	100000.000000	0.020106	100000.000000	
0.000000	100000.000000	0.020106	100000.000000	
0.000000	100000.000000	0.020106	100000.000000	
0.000000	100000.000000	0.000000	100000.000000	
0.000000	100000.000000	0.015394	100000.000000	
0.000000	100000.000000	0.015394	100000.000000	
0.000000	100000.000000	0.015394	100000.000000	
0.000000	100000.000000	0.015394	100000.000000	
0.000000	100000.000000	0.015394	100000.000000	
0.000000	100000.000000	0.015394	100000.000000	
0.000000	100000.000000	0.000000	100000.000000	
0.000000	100000.000000	0.011310	100000.000000	
0.000000	100000.000000	0.011310	100000.000000	
0.000000	100000.000000	0.011310	100000.000000	
0.000000	100000.000000	0.011310	100000.000000	
0.000000	100000.000000	0.011310	100000.000000	
0.000000	100000.000000	0.000000	100000.000000	
0.000000	100000.000000	0.031416	100000.000000	
0.000000	100000.000000	0.031416	100000.000000	
0.000000	100000.000000	0.031416	100000.000000	
0.000000	100000.000000	0.031416	100000.000000	
0.000000	100000.000000	0.000000	100000.000000	
0.000000	100000.000000	0.031416	100000.000000	
0.000000	100000.000000	0.031416	100000.000000	
0.000000	100000.000000	0.031416	100000.000000	
0.000000	100000.000000	0.031416	100000.000000	
0.000000	100000.000000	0.031416	100000.000000	
0.000000	100000.000000	0.031416	100000.000000	
0.000000	100000.000000	0.031416	100000.000000	
0.000000	100000.000000	0.031416	100000.000000	
0.000000	100000.000000	0.031416	100000.000000	
0.000000	100000.000000	0.031416	100000.000000	
0.000000	100000.000000	0.031416	100000.000000	
0.000000	100000.000000	0.031416	100000.000000	
0.000000	100000.000000	0.031416	100000.000000	
0.000000	100000.000000	0.031416	100000.000000	
0.000000	100000.000000	0.031416	100000.000000	
0.000000	100000.000000	0.031416	100000.000000	
0.000000	100000.000000	0.000000	100000.000000	
0.000000	100000.000000	0.502655	100000.000000	
0.000000	100000.000000	0.502655	100000.000000	
0.000000	100000.000000	0.502655	100000.000000	
0.000000	100000.000000	0.502655	100000.000000	
0.000000	100000.000000	0.502655	100000.000000	
0.000000	100000.000000	0.502655	100000.000000	
0.000000	100000.000000	0.502655	100000.000000	
0.000000	100000.000000	0.502655	100000.000000	
0.000000	100000.000000	0.000000	100000.000000	
0.000000	100000.000000	0.031416	100000.000000	
0.000000	100000.000000	0.031416	100000.000000	
0.000000	100000.000000	0.031416	100000.000000	
0.000000	100000.000000	0.031416	100000.000000	
0.000000	100000.000000	0.031416	100000.000000	
0.000000	100000.000000	0.031416	100000.000000	
0.000000	100000.000000	0.000000	100000.000000	
0.000000	100000.000000	0.125664	100000.000000	
0.000000	100000.000000	0.125664	100000.000000	
0.000000	100000.000000	0.125664	100000.000000	
0.000000	100000.000000	0.125664	100000.000000	
0.000000	100000.000000	0.125664	100000.000000	
0.000000	100000.000000	0.125664	100000.000000	
0.000000	100000.000000	0.125664	100000.000000	
0.000000	100000.000000	0.125664	100000.000000	
0.000000	100000.000000	0.125664	100000.000000	
0.000000	100000.000000	0.125664	100000.000000	
0.000000	100000.000000	0.125664	100000.000000	
0.000000	100000.000000	0.000000	100000.000000	
0.000000	100000.000000	0.407150	100000.000000	
0.000000	100000.000000	0.407150	100000.000000	
0.000000	100000.000000	0.407150	100000.000000	
0.000000	100000.000000	0.407150	100000.000000	
0.000000	100000.000000	0.407150	100000.000000	
0.000000	100000.000000	0.407150	100000.000000	
0.000000	100000.000000	0.407150	100000.000000	
0.000000	100000.000000	0.000000	100000.000000	
0.000000	100000.000000	0.070686	100000.000000	
0.000000	100000.000000	0.070686	100000.000000	
0.000000	100000.000000	0.070686	100000.000000	
0.000000	100000.000000	0.070686	100000.000000	
0.000000	100000.000000	0.070686	100000.000000	
0.000000	100000.000000	0.070686	100000.000000	
0.000000	100000.000000	0.070686	100000.000000	
0.000000	100000.000000	0.070686	100000.000000	
0.000000	100000.000000	0.070686	100000.000000	
0.000000	100000.000000	0.000000	100000.000000	
0.000000	100000.000000	0.031416	100000.000000	
0.000000	100000.000000	0.031416	100000.000000	
0.000000	100000.000000	0.031416	100000.000000	
0.000000	100000.000000	0.031416	100000.000000	
0.000000	100000.000000	0.031416	100000.000000	
0.000000	100000.000000	0.031416	100000.000000	
0.000000	100000.000000	0.000000	100000.000000	
0.000000	100000.000000	0.301907	100000.000000	
0.000000	100000.000000	0.301907	100000.000000	
0.000000	100000.000000	0.301907	100000.000000	
0.000000	100000.000000	0.301907	100000.000000	
0.000000	100000.000000	0.301907	100000.000000	
0.000000	100000.000000	0.301907	100000.000000	
0.000000	100000.000000	0.301907	100000.000000	
0.000000	100000.000000	0.000000	100000.000000	
0.000000	100000.000000	0.246301	100000.000000	
0.000000	100000.000000	0.246301	100000.000000	
0.000000	100000.000000	0.246301	100000.000000	
0.000000	100000.000000	0.246301	100000.000000	
0.000000	100000.000000	0.246301	100000.000000	
0.000000	100000.000000	0.246301	100000.000000	
0.000000	100000.000000	0.246301	100000.000000	
0.000000	100000.000000	0.000000	100000.000000	
0.000000	100000.000000	0.212372	100000.000000	
0.000000	100000.000000	0.212372	100000.000000	
0.000000	100000.000000	0.212372	100000.000000	
0.000000	100000.000000	0.212372	100000.000000	
0.000000	100000.000000	0.212372	100000.000000	
0.000000	100000.000000	0.212372	100000.000000	
0.000000	100000.000000	0.212372	100000.000000	
0.000000	100000.000000	0.000000	100000.000000	
0.000000	100000.000000	0.015394	100000.000000	
0.000000	100000.000000	0.015394	100000.000000	
0.000000	100000.000000	0.015394	100000.000000	
0.000000	100000.000000	0.015394	100000.000000	
0.000000	100000.000000	0.015394	100000.000000	
0.000000	100000.000000	0.015394	100000.000000	
0.000000	100000.000000	0.000000	100000.000000	
0.000000	100000.000000	0.196350	100000.000000	
0.000000	100000.000000	0.196350	100000.000000	
0.000000	100000.000000	0.196350	100000.000000	
0.000000	100000.000000	0.196350	100000.000000	
0.000000	100000.000000	0.196350	100000.000000	
0.000000	100000.000000	0.196350	100000.000000	
0.000000	100000.000000	0.196350	100000.000000	
0.000000	100000.000000	0.000000	100000.000000	
0.000000	100000.000000	0.180956	100000.000000	
0.000000	100000.000000	0.180956	100000.000000	
0.000000	100000.000000	0.180956	100000.000000	
0.000000	100000.000000	0.180956	100000.000000	
0.000000	100000.000000	0.180956	100000.000000	
0.000000	100000.000000	0.180956	100000.000000	
0.000000	100000.000000	0.000000	100000.000000	
0.000000	100000.000000	0.080425	100000.000000	
0.000000	100000.000000	0.080425	100000.000000	
0.000000	100000.000000	0.080425	100000.000000	
0.000000	100000.000000	0.080425	100000.000000	
0.000000	100000.000000	0.080425	100000.000000	
0.000000	100000.000000	0.080425	100000.000000	
0.000000	100000.000000	0.080425	100000.000000	
0.000000	100000.000000	0.080425	100000.000000	
0.000000	100000.000000	0.080425	100000.000000	
0.000000	100000.000000	0.080425	100000.000000	
0.000000	100000.000000	0.080425	100000.000000	
0.000000	100000.000000	0.080425	100000.000000	
0.000000	100000.000000	0.080425	100000.000000	
0.000000	100000.000000	0.080425	100000.000000	
0.000000	100000.000000	0.080425	100000.000000	
0.000000	100000.000000	0.080425	100000.000000	
0.000000	100000.000000	0.080425	100000.000000	
0.000000	100000.000000	0.080425	100000.000000	
0.000000	100000.000000	0.080425	100000.000000	
0.000000	100000.000000	0.080425	100000.000000	
0.000000	100000.000000	0.080425	100000.000000	
0.000000	100000.000000	0.080425	100000.000000	
0.000000	100000.000000	0.080425	100000.000000	
0.000000	100000.000000	0.080425	100000.000000	
0.000000	100000.000000	0.080425	100000.000000	
0.000000	100000.000000	0.000000	100000.000000	
0.000000	100000.000000	0.138544	100000.000000	
0.000000	100000.000000	0.138544	100000.000000	
0.000000	100000.000000	0.138544	100000.000000	
0.000000	100000.000000	0.138544	100000.000000	
0.000000	100000.000000	0.138544	100000.000000	
0.000000	100000.000000	0.138544	100000.000000	
0.000000	100000.000000	0.138544	100000.000000	
0.000000	100000.000000	0.000000	100000.000000	
0.000000	100000.000000	0.025447	100000.000000	
0.000000	100000.000000	0.025447	100000.000000	
0.000000	100000.000000	0.025447	100000.000000	
0.000000	100000.000000	0.025447	100000.000000	
0.000000	100000.000000	0.025447	100000.000000	
0.000000	100000.000000	0.025447	100000.000000	
0.000000	100000.000000	0.025447	100000.000000	
0.000000	100000.000000	0.025447	100000.000000	
0.000000	100000.000000	0.025447	100000.000000	
0.000000	100000.000000	0.000000	100000.000000	
0.000000	100000.000000	0.113411	100000.000000	
0.000000	100000.000000	0.113411	100000.000000	
0.000000	100000.000000	0.113411	100000.000000	
0.000000	100000.000000	0.113411	100000.000000	
0.000000	100000.000000	0.113411	100000.000000	
0.000000	100000.000000	0.113411	100000.000000	
0.000000	100000.000000	0.113411	100000.000000	
0.000000	100000.000000	0.113411	100000.000000	
0.000000	100000.000000	0.113411	100000.000000	
0.000000	100000.000000	0.113411	100000.000000	
0.000000	100000.000000	0.113411	100000.000000	
0.000000	100000.000000	0.113411	100000.000000	
0.000000	100000.000000	0.113411	100000.000000	
0.000000	100000.000000	0.113411	100000.000000	
0.000000	100000.000000	0.113411	100000.000000	
0.000000	100000.000000	0.113411	100000.000000	
0.000000	100000.000000	0.113411	100000.000000	
0.000000	100000.000000	0.000000	100000.000000	
0.000000	100000.000000	0.011310	100000.000000	
0.000000	100000.000000	0.011310	100000.000000	
0.000000	100000.000000	0.011310	100000.000000	
0.000000	100000.000000	0.011310	100000.000000	
0.000000	100000.000000	0.011310	100000.000000	
0.000000	100000.000000	0.011310	100000.000000	
0.000000	100000.000000	0.000000	100000.000000	
0.000000	100000.000000	0.070686	100000.000000	
0.000000	100000.000000	0.070686	100000.000000	
0.000000	100000.000000	0.070686	100000.000000	
0.000000	100000.000000	0.070686	100000.000000	
0.000000	100000.000000	0.070686	100000.000000	
0.000000	100000.000000	0.070686	100000.000000	
0.000000	100000.000000	0.070686	100000.000000	
0.000000	100000.000000	0.070686	100000.000000	
0.000000	100000.000000	0.070686	100000.000000	
0.000000	100000.000000	0.070686	100000.000000	
0.000000	100000.000000	0.070686	100000.000000	
0.000000	100000.000000	0.070686	100000.000000	
0.000000	100000.000000	0.070686	100000.000000	
0.000000	100000.000000	0.070686	100000.000000	
0.000000	100000.000000	0.070686	100000.000000	
0.000000	100000.000000	0.070686	100000.000000	
0.000000	100000.000000	0.000000	100000.000000	
0.000000	100000.000000	0.070686	100000.000000	
0.000000	100000.000000	0.070686	100000.000000	
0.000000	100000.000000	0.070686	100000.000000	
0.000000	100000.000000	0.070686	100000.000000	
0.000000	100000.000000	0.000000	100000.000000	
0.000000	100000.000000	0.031416	100000.000000	
0.000000	100000.000000	0.031416	100000.000000	
0.000000	100000.000000	0.031416	100000.000000	
0.000000	100000.000000	0.031416	100000.000000	
0.000000	100000.000000	0.031416	100000.000000	
0.000000	100000.000000	0.031416	100000.000000	
0.000000	100000.000000	0.000000	100000.000000	
0.000000	100000.000000	0.113411	100000.000000	
0.000000	100000.000000	0.113411	100000.000000	
0.000000	100000.000000	0.113411	100000.000000	
0.000000	100000.000000	0.113411	100000.000000	
0.000000	100000.000000	0.113411	100000.000000	
0.000000	100000.000000	0.113411	100000.000000	
0.000000	100000.000000	0.113411	100000.000000	
0.000000	100000.000000	0.113411	100000.000000	
0.000000	100000.000000	0.113411	100000.000000	
0.000000	100000.000000	0.113411	100000.000000	
0.000000	100000.000000	0.113411	100000.000000	
0.000000	100000.000000	0.113411	100000.000000	
0.000000	100000.000000	0.113411	100000.000000	
0.000000	100000.000000	0.113411	100000.000000	
0.000000	100000.000000	0.113411	100000.000000	
0.000000	100000.000000	0.113411	100000.000000	
0.000000	100000.000000	0.000000	100000.000000	
