*NODAL DOFs
3
*DIMEN
2 
*COORDINATES
32 
0.000000 0.000000 
0.000000 0.000000 
5.000000 0.000000 
10.000000 0.000000 
10.000000 0.000000 
10.000000 0.000000 
12.176264 -1.230397 
14.352528 -2.460793 
16.528792 -3.691190 
18.705055 -4.921586 
10.000000 0.000000 
11.932490 1.586027 
13.864980 3.172055 
15.797469 4.758082 
17.729959 6.344110 
23.704842 -4.967738 
28.704629 -5.013890 
21.063293 6.344110 
24.396626 6.344110 
27.729959 6.344110 
27.729959 6.344110 
33.320014 -6.936967 
37.935399 -8.860044 
37.935399 -8.860044 
27.729959 6.344110 
31.155820 9.986016 
34.581681 13.627922 
34.581681 13.627922 
27.729959 6.344110 
31.973402 3.699646 
36.216845 1.055181 
36.216845 1.055181 
*ELEMENT GROUPS
1 
1 37 Generic 
2
2
2
2
2
4
2
2
2
2
2
2
2
2
2
2
2
2
2
2
2
2
4
2
2
2
2
2
2
2
2
2
2
2
2
2
2
*INCIDENCE
1 2 
2 3 
2 3 
3 4 
3 4 
5 4 6 11 
6 7 
6 7 
7 8 
8 9 
9 10 
11 12 
11 12 
12 13 
13 14 
14 15 
10 16 
16 17 
15 18 
18 19 
19 20 
19 20 
21 20 25 29 
17 22 
22 23 
22 23 
24 23 
25 26 
25 26 
26 27 
26 27 
28 27 
29 30 
29 30 
30 31 
30 31 
32 31 
*ELEMENT TYPE
2
1
3
1
4
2
1
3
1
1
1
1
3
1
1
1
1
1
1
1
1
4
2
1
1
4
2
1
3
1
4
2
1
3
1
4
2
*ELEMENT MAT
1
2
2
2
2
3
4
4
4
4
4
5
5
5
5
5
6
6
7
7
7
7
8
9
9
9
10
11
11
11
11
12
13
13
13
13
14
*DIRICHLET CONDITIONS
0 0 0 
0 0 0 
0 0 0 
0 0 0 
0 0 0 
0 0 0 
0 0 0 
0 0 0 
0 0 0 
0 0 0 
0 0 0 
0 0 0 
0 0 0 
0 0 0 
0 0 0 
0 0 0 
0 0 0 
0 0 0 
0 0 0 
0 0 0 
0 0 0 
0 0 0 
0 0 0 
0 0 0 
0 0 0 
0 0 0 
0 0 0 
0 0 0 
0 0 0 
0 0 0 
0 0 0 
0 0 0 
0. 0. 0. 
0. 3.141593 0. 
0. 3.141593 0. 
0. 3.141593 0. 
0. 0. 0. 
0. 3.141593 0. 
0. 3.141593 0. 
0. 3.141593 0. 
0. 3.141593 0. 
0. 3.141593 0. 
0. 3.141593 0. 
0. 3.141593 0. 
0. 3.141593 0. 
0. 3.141593 0. 
0. 3.141593 0. 
0. 3.141593 0. 
0. 3.141593 0. 
0. 3.141593 0. 
0. 3.141593 0. 
0. 3.141593 0. 
0. 0. 0. 
0. 3.141593 0. 
0. 3.141593 0. 
0. 0. 0. 
0. 3.141593 0. 
0. 3.141593 0. 
0. 3.141593 0. 
0. 0. 0. 
0. 3.141593 0. 
0. 3.141593 0. 
0. 3.141593 0. 
0. 0. 0. 
