*NODAL DOFs
3
*DIMEN
2 
*COORDINATES
29 
0.000000 0.000000 
0.000000 0.000000 
1.666667 0.000000 
3.333333 0.000000 
5.000000 0.000000 
6.666667 0.000000 
8.333333 0.000000 
10.000000 0.000000 
10.000000 0.000000 
10.000000 0.000000 
12.703493 1.949933 
15.406985 3.899866 
18.110478 5.849799 
18.110478 5.849799 
10.000000 0.000000 
12.182359 -1.219553 
14.364717 -2.439107 
16.547076 -3.658660 
18.729435 -4.878214 
18.110478 5.849799 
21.423707 6.215343 
24.736937 6.580887 
28.050166 6.946431 
28.050166 6.946431 
21.229428 -4.872400 
23.729421 -4.866586 
26.229415 -4.860772 
28.729408 -4.854958 
28.729408 -4.854958 
*ELEMENT GROUPS
1 
1 33 Generic 
2
2
2
2
2
2
2
2
2
4
2
2
2
2
2
3
2
2
2
2
2
2
2
2
2
2
2
2
2
2
2
2
2
*INCIDENCE
1 2 
2 3 
2 3 
3 4 
4 5 
5 6 
6 7 
7 8 
7 8 
9 8 10 15 
10 11 
10 11 
11 12 
12 13 
12 13 
14 13 20 
15 16 
15 16 
16 17 
17 18 
18 19 
20 21 
20 21 
21 22 
22 23 
22 23 
24 23 
19 25 
25 26 
26 27 
27 28 
27 28 
29 28 
*ELEMENT TYPE
2
1
3
1
1
1
1
1
4
2
1
3
1
1
4
2
1
3
1
1
1
1
3
1
1
4
2
1
1
1
1
4
2
*ELEMENT MAT
1
2
2
2
2
2
2
2
2
3
4
4
4
4
4
5
6
6
6
6
6
7
7
7
7
7
8
9
9
9
9
9
10
*DIRICHLET CONDITIONS
0 0 0 
0 0 0 
0 0 0 
0 0 0 
0 0 0 
0 0 0 
0 0 0 
0 0 0 
0 0 0 
0 0 0 
0 0 0 
0 0 0 
0 0 0 
0 0 0 
0 0 0 
0 0 0 
0 0 0 
0 0 0 
0 0 0 
0 0 0 
0 0 0 
0 0 0 
0 0 0 
0 0 0 
0 0 0 
0 0 0 
0 0 0 
0 0 0 
0 0 0 
0. 0. 0. 
0. 3.141593 0. 
0. 3.141593 0. 
0. 3.141593 0. 
0. 3.141593 0. 
0. 3.141593 0. 
0. 3.141593 0. 
0. 3.141593 0. 
0. 0. 0. 
0. 3.141593 0. 
0. 3.141593 0. 
0. 3.141593 0. 
0. 3.141593 0. 
0. 0. 0. 
0. 3.141593 0. 
0. 3.141593 0. 
0. 3.141593 0. 
0. 3.141593 0. 
0. 3.141593 0. 
0. 3.141593 0. 
0. 3.141593 0. 
0. 3.141593 0. 
0. 3.141593 0. 
0. 0. 0. 
0. 3.141593 0. 
0. 3.141593 0. 
0. 3.141593 0. 
0. 3.141593 0. 
0. 0. 0. 
