*Parameter Groups
10
*Real Parameters
4
13
4
13
4
13
13
4
13
4
0. 0. 0. 0. 
3.141593 3.141593 0.3141593 0.3141593 5000000 0. 1. 1. 0. 1. 0. 0. 0. 
1.e+008 1.e+008 0. 0. 
3.141593 3.141593 0.3141593 0.3141593 5000000 0. 1. 1. 0. 1. 0. 0. 0. 
1.e+008 1.e+008 0. 0. 
3.141593 3.141593 1.3141593 0.3141593 5000000 0. 1. 1. 0. 1. 0. 0. 0. 
3.141593 3.141593 2.3141593 0.3141593 5000000 0. 1. 1. 0. 1. 0. 0. 0. 
0. 0. 0. 0. 
3.141593 3.141593 3.3141593 0.3141593 5000000 0. 1. 1. 0. 1. 0. 0. 0. 
0. 0. 0. 0. 
*Integer Parameters
2 0 4 0 3 0 0 2 0 2 
-1 0 1 -1 -1 0 1 -1 0 1 0 1 0 
