*Initial Conditions
 -0.68207569E-004 +0.00000000E+000 +0.31701861E-003
 +0.68207569E-004 +0.31415930E+001 +0.31701861E-003
 +0.68202129E-004 +0.31415930E+001 +0.26271639E-003
 +0.68194938E-004 +0.31415930E+001 +0.20873157E-003
 +0.10436578E-011 +0.00000000E+000 +0.20873157E-003
 +0.68194937E-004 +0.31415930E+001 +0.20873157E-003
 +0.68184658E-004 +0.31415930E+001 +0.14415668E-003
 +0.68173258E-004 +0.31415930E+001 +0.79772543E-004
 +0.39886271E-012 +0.00000000E+000 +0.79772543E-004
 +0.16417175E-004 +0.31415930E+001 +0.79772543E-004
 +0.16409464E-004 +0.31415930E+001 +0.69363176E-004
 +0.16401932E-004 +0.31415930E+001 +0.58942605E-004
 +0.16394892E-004 +0.31415930E+001 +0.48500219E-004
 +0.16388600E-004 +0.31415930E+001 +0.38030660E-004
 +0.16383269E-004 +0.31415930E+001 +0.27528809E-004
 +0.13764404E-012 +0.00000000E+000 +0.27528809E-004
 +0.16417176E-004 +0.31415930E+001 +0.79772543E-004
 +0.16409465E-004 +0.31415930E+001 +0.69363176E-004
 +0.16401933E-004 +0.31415930E+001 +0.58942604E-004
 +0.16394893E-004 +0.31415930E+001 +0.48500217E-004
 +0.16388601E-004 +0.31415930E+001 +0.38030663E-004
 +0.16383270E-004 +0.31415930E+001 +0.27528811E-004
 +0.13764405E-012 +0.00000000E+000 +0.27528810E-004
 +0.10961704E-004 +0.31415930E+001 +0.79772543E-004
 +0.10958151E-004 +0.31415930E+001 +0.77009985E-004
 +0.10954452E-004 +0.31415930E+001 +0.74242514E-004
 +0.10950637E-004 +0.31415930E+001 +0.71466405E-004
 +0.10946737E-004 +0.31415930E+001 +0.68678369E-004
 +0.10942783E-004 +0.31415930E+001 +0.65875242E-004
 +0.10938806E-004 +0.31415930E+001 +0.63054040E-004
 +0.10934837E-004 +0.31415930E+001 +0.60212003E-004
 +0.10930909E-004 +0.31415930E+001 +0.57346632E-004
 +0.10927051E-004 +0.31415930E+001 +0.54455705E-004
 +0.10923294E-004 +0.31415930E+001 +0.51537309E-004
 +0.10919669E-004 +0.31415930E+001 +0.48589845E-004
 +0.10916203E-004 +0.31415930E+001 +0.45612054E-004
 +0.10912923E-004 +0.31415930E+001 +0.42602997E-004
 +0.10909856E-004 +0.31415930E+001 +0.39562066E-004
 +0.10907024E-004 +0.31415930E+001 +0.36488976E-004
 +0.10904449E-004 +0.31415930E+001 +0.33383749E-004
 +0.10902151E-004 +0.31415930E+001 +0.30246703E-004
 +0.10900148E-004 +0.31415930E+001 +0.27078427E-004
 +0.10898454E-004 +0.31415930E+001 +0.23879747E-004
 +0.10897066E-004 +0.31415930E+001 +0.20649549E-004
 +0.10324774E-012 +0.00000000E+000 +0.20649549E-004
 +0.24377203E-004 +0.31415930E+001 +0.79772543E-004
 +0.24361919E-004 +0.31415930E+001 +0.39855915E-004
 +0.24356238E-004 +0.31415930E+001 +0.57710492E-012
 +0.24356238E-004 +0.00000000E+000 +0.00000000E+000
 +0.79734476E-005 +0.31415930E+001 +0.27528809E-004
 +0.79709180E-005 +0.31415930E+001 +0.24488508E-004
 +0.79686563E-005 +0.31415930E+001 +0.21439108E-004
 +0.79666759E-005 +0.31415930E+001 +0.18383322E-004
 +0.79649884E-005 +0.31415930E+001 +0.15323155E-004
 +0.79636017E-005 +0.31415930E+001 +0.12260242E-004
 +0.79625205E-005 +0.31415930E+001 +0.91958187E-005
 +0.79617473E-005 +0.31415930E+001 +0.61307090E-005
 +0.79612832E-005 +0.31415930E+001 +0.30653741E-005
 +0.79611285E-005 +0.31415930E+001 +0.16208403E-013
 +0.79611285E-005 +0.00000000E+000 +0.00000000E+000
 +0.30843429E-005 +0.31415930E+001 +0.27528809E-004
 +0.30730923E-005 +0.31415930E+001 +0.23750398E-004
 +0.30640163E-005 +0.31415930E+001 +0.19458695E-004
 +0.97293476E-013 +0.00000000E+000 +0.19458695E-004
 +0.53254783E-005 +0.31415930E+001 +0.27528809E-004
 +0.53237862E-005 +0.31415930E+001 +0.26242993E-004
 +0.53221272E-005 +0.31415930E+001 +0.24952521E-004
 +0.53205063E-005 +0.31415930E+001 +0.23657796E-004
 +0.53189298E-005 +0.31415930E+001 +0.22358987E-004
 +0.53174046E-005 +0.31415930E+001 +0.21056289E-004
 +0.53159372E-005 +0.31415930E+001 +0.19749944E-004
 +0.53145341E-005 +0.31415930E+001 +0.18440234E-004
 +0.53132015E-005 +0.31415930E+001 +0.17127487E-004
 +0.53119453E-005 +0.31415930E+001 +0.15812077E-004
 +0.53107710E-005 +0.31415930E+001 +0.14494405E-004
 +0.53096835E-005 +0.31415930E+001 +0.13174908E-004
 +0.53086874E-005 +0.31415930E+001 +0.11854045E-004
 +0.53077864E-005 +0.31415930E+001 +0.10532277E-004
 +0.53069836E-005 +0.31415930E+001 +0.92100911E-005
 +0.46050455E-013 +0.00000000E+000 +0.92100911E-005
 +0.79734478E-005 +0.31415930E+001 +0.27528810E-004
 +0.79709182E-005 +0.31415930E+001 +0.24488511E-004
 +0.79686566E-005 +0.31415930E+001 +0.21439109E-004
 +0.79666762E-005 +0.31415930E+001 +0.18383323E-004
 +0.79649887E-005 +0.31415930E+001 +0.15323155E-004
 +0.79636019E-005 +0.31415930E+001 +0.12260242E-004
 +0.79625207E-005 +0.31415930E+001 +0.91958195E-005
 +0.79617476E-005 +0.31415930E+001 +0.61307091E-005
 +0.79612835E-005 +0.31415930E+001 +0.30653759E-005
 +0.79611287E-005 +0.31415930E+001 +0.16208405E-013
 +0.79611287E-005 +0.00000000E+000 +0.00000000E+000
 +0.30843431E-005 +0.31415930E+001 +0.27528810E-004
 +0.30730925E-005 +0.31415930E+001 +0.23750399E-004
 +0.30640165E-005 +0.31415930E+001 +0.19458697E-004
 +0.97293484E-013 +0.00000000E+000 +0.19458697E-004
 +0.53254789E-005 +0.31415930E+001 +0.27528810E-004
 +0.53237867E-005 +0.31415930E+001 +0.26242995E-004
 +0.53221278E-005 +0.31415930E+001 +0.24952524E-004
 +0.53205068E-005 +0.31415930E+001 +0.23657798E-004
 +0.53189304E-005 +0.31415930E+001 +0.22358988E-004
 +0.53174052E-005 +0.31415930E+001 +0.21056289E-004
 +0.53159378E-005 +0.31415930E+001 +0.19749945E-004
 +0.53145346E-005 +0.31415930E+001 +0.18440234E-004
 +0.53132020E-005 +0.31415930E+001 +0.17127490E-004
 +0.53119458E-005 +0.31415930E+001 +0.15812077E-004
 +0.53107715E-005 +0.31415930E+001 +0.14494405E-004
 +0.53096841E-005 +0.31415930E+001 +0.13174909E-004
 +0.53086880E-005 +0.31415930E+001 +0.11854046E-004
 +0.53077869E-005 +0.31415930E+001 +0.10532276E-004
 +0.53069841E-005 +0.31415930E+001 +0.92100915E-005
 +0.46050458E-013 +0.00000000E+000 +0.92100915E-005
 +0.47034291E-005 +0.31415930E+001 +0.20649549E-004
 +0.46976588E-005 +0.31415930E+001 +0.10581721E-004
 +0.46956779E-005 +0.31415930E+001 +0.28851722E-012
 +0.46956779E-005 +0.00000000E+000 +0.00000000E+000
 +0.47034293E-005 +0.31415930E+001 +0.20649549E-004
 +0.46976590E-005 +0.31415930E+001 +0.10581721E-004
 +0.46956781E-005 +0.31415930E+001 +0.28851720E-012
 +0.46956781E-005 +0.00000000E+000 +0.00000000E+000
 +0.14902077E-005 +0.31415930E+001 +0.20649549E-004
 +0.14890503E-005 +0.31415930E+001 +0.20918171E-004
 +0.14880991E-005 +0.31415930E+001 +0.21152686E-004
 +0.14873454E-005 +0.31415930E+001 +0.21353068E-004
 +0.14867929E-005 +0.31415930E+001 +0.21517202E-004
 +0.14864433E-005 +0.31415930E+001 +0.21643144E-004
 +0.14862963E-005 +0.31415930E+001 +0.21729126E-004
 +0.14863497E-005 +0.31415930E+001 +0.21773553E-004
 +0.14865992E-005 +0.31415930E+001 +0.21774992E-004
 +0.14870390E-005 +0.31415930E+001 +0.21732172E-004
 +0.14876613E-005 +0.31415930E+001 +0.21643973E-004
 +0.14884568E-005 +0.31415930E+001 +0.21509421E-004
 +0.14894144E-005 +0.31415930E+001 +0.21327686E-004
 +0.14905221E-005 +0.31415930E+001 +0.21098073E-004
 +0.14917663E-005 +0.31415930E+001 +0.20820022E-004
 +0.14931324E-005 +0.31415930E+001 +0.20493101E-004
 +0.14946049E-005 +0.31415930E+001 +0.20117011E-004
 +0.14961678E-005 +0.31415930E+001 +0.19691575E-004
 +0.14978043E-005 +0.31415930E+001 +0.19216744E-004
 +0.14994974E-005 +0.31415930E+001 +0.18692598E-004
 +0.15012297E-005 +0.31415930E+001 +0.18119341E-004
 +0.15029842E-005 +0.31415930E+001 +0.17497312E-004
 +0.15047437E-005 +0.31415930E+001 +0.16826977E-004
 +0.15064915E-005 +0.31415930E+001 +0.16108943E-004
 +0.15082116E-005 +0.31415930E+001 +0.15343967E-004
 +0.15098635E-005 +0.31415930E+001 +0.14528965E-004
 +0.72644824E-013 +0.00000000E+000 +0.14528965E-004
 +0.30640162E-005 +0.31415930E+001 +0.19458695E-004
 +0.30608311E-005 +0.31415930E+001 +0.17109378E-004
 +0.30585661E-005 +0.31415930E+001 +0.14567005E-004
 +0.30570639E-005 +0.31415930E+001 +0.11840894E-004
 +0.30561287E-005 +0.31415930E+001 +0.89215759E-005
 +0.44607878E-013 +0.00000000E+000 +0.89215758E-005
 +0.26534919E-005 +0.31415930E+001 +0.92100909E-005
 +0.26495306E-005 +0.31415930E+001 +0.45923199E-005
 +0.26481963E-005 +0.31415930E+001 +0.13413632E-012
 +0.26481963E-005 +0.00000000E+000 +0.00000000E+000
 +0.26534917E-005 +0.31415930E+001 +0.92100909E-005
 +0.26495304E-005 +0.31415930E+001 +0.45923201E-005
 +0.26481961E-005 +0.31415930E+001 +0.13413634E-012
 +0.26481961E-005 +0.00000000E+000 +0.00000000E+000
 +0.30640164E-005 +0.31415930E+001 +0.19458697E-004
 +0.30608313E-005 +0.31415930E+001 +0.17109380E-004
 +0.30585663E-005 +0.31415930E+001 +0.14567006E-004
 +0.30570640E-005 +0.31415930E+001 +0.11840895E-004
 +0.30561289E-005 +0.31415930E+001 +0.89215769E-005
 +0.44607884E-013 +0.00000000E+000 +0.89215768E-005
 +0.26534920E-005 +0.31415930E+001 +0.92100914E-005
 +0.26495308E-005 +0.31415930E+001 +0.45923201E-005
 +0.26481965E-005 +0.31415930E+001 +0.13413620E-012
 +0.26481965E-005 +0.00000000E+000 +0.00000000E+000
 +0.26534920E-005 +0.31415930E+001 +0.92100914E-005
 +0.26495308E-005 +0.31415930E+001 +0.45923201E-005
 +0.26481965E-005 +0.31415930E+001 +0.13413620E-012
 +0.26481965E-005 +0.00000000E+000 +0.00000000E+000
 +0.75484775E-006 +0.31415930E+001 +0.14528965E-004
 +0.76212978E-006 +0.31415930E+001 +0.11621056E-004
 +0.76700833E-006 +0.31415930E+001 +0.73679195E-005
 +0.36839597E-013 +0.00000000E+000 +0.73679193E-005
 +0.75501563E-006 +0.31415930E+001 +0.14528965E-004
 +0.76257420E-006 +0.31415930E+001 +0.11825981E-004
 +0.76809039E-006 +0.31415930E+001 +0.77208043E-005
 +0.38604020E-013 +0.00000000E+000 +0.77208041E-005
 +0.12227537E-005 +0.31415930E+001 +0.89215759E-005
 +0.12217202E-005 +0.31415930E+001 +0.66716981E-005
 +0.12214212E-005 +0.31415930E+001 +0.37205753E-005
 +0.18602876E-013 +0.00000000E+000 +0.37205752E-005
 +0.18333750E-005 +0.31415930E+001 +0.89215759E-005
 +0.18323020E-005 +0.31415930E+001 +0.46788517E-005
 +0.18321318E-005 +0.31415930E+001 +0.91021508E-013
 +0.18321318E-005 +0.00000000E+000 +0.00000000E+000
 +0.12227538E-005 +0.31415930E+001 +0.89215770E-005
 +0.12217203E-005 +0.31415930E+001 +0.66716988E-005
 +0.12214213E-005 +0.31415930E+001 +0.37205757E-005
 +0.18602878E-013 +0.00000000E+000 +0.37205755E-005
 +0.18333751E-005 +0.31415930E+001 +0.89215770E-005
 +0.18323020E-005 +0.31415930E+001 +0.46788521E-005
 +0.18321319E-005 +0.31415930E+001 +0.91021634E-013
 +0.18321319E-005 +0.00000000E+000 +0.00000000E+000
 +0.50019604E-006 +0.31415930E+001 +0.73679196E-005
 +0.50243549E-006 +0.31415930E+001 +0.39339252E-005
 +0.50332310E-006 +0.31415930E+001 -0.12593886E-013
 +0.50332310E-006 +0.00000000E+000 +0.00000000E+000
 +0.26681225E-006 +0.31415930E+001 +0.73679197E-005
 +0.26888214E-006 +0.31415930E+001 +0.55521832E-005
 +0.26958670E-006 +0.31415930E+001 +0.30187709E-005
 +0.15093854E-013 +0.00000000E+000 +0.30187708E-005
 +0.49911392E-006 +0.31415930E+001 +0.77208044E-005
 +0.50199102E-006 +0.31415930E+001 +0.41388508E-005
 +0.50315516E-006 +0.31415930E+001 -0.31257841E-013
 +0.50315516E-006 +0.00000000E+000 +0.00000000E+000
 +0.26897643E-006 +0.31415930E+001 +0.77208045E-005
 +0.27185483E-006 +0.31415930E+001 +0.61109546E-005
 +0.27314314E-006 +0.31415930E+001 +0.36638005E-005
 +0.18319002E-013 +0.00000000E+000 +0.36638004E-005
 +0.61071061E-006 +0.31415930E+001 +0.37205753E-005
 +0.61058173E-006 +0.31415930E+001 +0.19928466E-005
 +0.61062133E-006 +0.31415930E+001 +0.39481478E-013
 +0.61062133E-006 +0.00000000E+000 +0.00000000E+000
 +0.61071061E-006 +0.31415930E+001 +0.37205753E-005
 +0.61058173E-006 +0.31415930E+001 +0.19928467E-005
 +0.61062133E-006 +0.31415930E+001 +0.39481491E-013
 +0.61062133E-006 +0.00000000E+000 +0.00000000E+000
 +0.61071065E-006 +0.31415930E+001 +0.37205757E-005
 +0.61058177E-006 +0.31415930E+001 +0.19928468E-005
 +0.61062137E-006 +0.31415930E+001 +0.39481578E-013
 +0.61062137E-006 +0.00000000E+000 +0.00000000E+000
 +0.61071065E-006 +0.31415930E+001 +0.37205757E-005
 +0.61058177E-006 +0.31415930E+001 +0.19928470E-005
 +0.61062137E-006 +0.31415930E+001 +0.39481596E-013
 +0.61062137E-006 +0.00000000E+000 +0.00000000E+000
 +0.35850274E-007 +0.31415930E+001 +0.30187708E-005
 +0.36724265E-007 +0.31415930E+001 +0.65504995E-006
 +0.40759861E-007 +0.31415930E+001 -0.15919280E-005
 +0.23373642E-006 +0.31415930E+001 +0.30187709E-005
 +0.23355337E-006 +0.31415930E+001 +0.16182577E-005
 +0.23338381E-006 +0.31415930E+001 +0.51856658E-013
 +0.23338381E-006 +0.00000000E+000 +0.00000000E+000
 +0.43131078E-007 +0.31415930E+001 +0.36638006E-005
 +0.43380205E-007 +0.31415930E+001 +0.16462559E-005
 +0.44507226E-007 +0.31415930E+001 -0.59061197E-006
 +0.23001204E-006 +0.31415930E+001 +0.36638005E-005
 +0.23013621E-006 +0.31415930E+001 +0.19721036E-005
 +0.23013751E-006 +0.31415930E+001 +0.44565371E-013
 +0.23013751E-006 +0.00000000E+000 +0.00000000E+000
 +0.41518439E-007 +0.31415930E+001 -0.18679347E-005
 +0.42294913E-007 +0.31415930E+001 -0.21232037E-005
 +0.43116825E-007 +0.31415930E+001 -0.23623214E-005
 +0.43975362E-007 +0.31415930E+001 -0.25845240E-005
 +0.44862735E-007 +0.31415930E+001 -0.27896157E-005
 +0.45770336E-007 +0.31415930E+001 -0.29776348E-005
 +0.46688854E-007 +0.31415930E+001 -0.31488222E-005
 +0.47608424E-007 +0.31415930E+001 -0.33035882E-005
 +0.48518782E-007 +0.31415930E+001 -0.34424734E-005
 +0.49409421E-007 +0.31415930E+001 -0.35661061E-005
 +0.50269770E-007 +0.31415930E+001 -0.36751600E-005
 +0.51089357E-007 +0.31415930E+001 -0.37703100E-005
 +0.51857990E-007 +0.31415930E+001 -0.38521911E-005
 +0.52565930E-007 +0.31415930E+001 -0.39213593E-005
 +0.53204065E-007 +0.31415930E+001 -0.39782585E-005
 +0.53764071E-007 +0.31415930E+001 -0.40231924E-005
 +0.54238573E-007 +0.31415930E+001 -0.40563034E-005
 +0.54621288E-007 +0.31415930E+001 -0.40775600E-005
 +0.54907155E-007 +0.31415930E+001 -0.40867517E-005
 +0.55092445E-007 +0.31415930E+001 -0.40834933E-005
 +0.55174854E-007 +0.31415930E+001 -0.40672369E-005
 +0.55153568E-007 +0.31415930E+001 -0.40372928E-005
 +0.55029312E-007 +0.31415930E+001 -0.39928568E-005
 +0.54804323E-007 +0.31415930E+001 -0.39330506E-005
 +0.54492040E-007 +0.31415930E+001 -0.38554174E-005
 -0.19277087E-013 +0.00000000E+000 -0.38554174E-005
 +0.44678709E-007 +0.31415930E+001 -0.88068961E-006
 +0.44854288E-007 +0.31415930E+001 -0.11595567E-005
 +0.45040983E-007 +0.31415930E+001 -0.14278448E-005
 +0.45234072E-007 +0.31415930E+001 -0.16846339E-005
 +0.45430234E-007 +0.31415930E+001 -0.19295172E-005
 +0.45625737E-007 +0.31415930E+001 -0.21622764E-005
 +0.45816540E-007 +0.31415930E+001 -0.23828534E-005
 +0.45998392E-007 +0.31415930E+001 -0.25913164E-005
 +0.46166947E-007 +0.31415930E+001 -0.27878238E-005
 +0.46317870E-007 +0.31415930E+001 -0.29725837E-005
 +0.46446956E-007 +0.31415930E+001 -0.31458141E-005
 +0.46550233E-007 +0.31415930E+001 -0.33077026E-005
 +0.46624073E-007 +0.31415930E+001 -0.34583688E-005
 +0.46665291E-007 +0.31415930E+001 -0.35978299E-005
 +0.46671234E-007 +0.31415930E+001 -0.37259716E-005
 +0.46639866E-007 +0.31415930E+001 -0.38425251E-005
 +0.46569833E-007 +0.31415930E+001 -0.39470512E-005
 +0.46460525E-007 +0.31415930E+001 -0.40389326E-005
 +0.46312111E-007 +0.31415930E+001 -0.41173743E-005
 +0.46125566E-007 +0.31415930E+001 -0.41814133E-005
 +0.45902678E-007 +0.31415930E+001 -0.42299361E-005
 +0.45646040E-007 +0.31415930E+001 -0.42617048E-005
 +0.45359022E-007 +0.31415930E+001 -0.42753900E-005
 +0.45045700E-007 +0.31415930E+001 -0.42696156E-005
 +0.44723025E-007 +0.31415930E+001 -0.42410569E-005
 -0.21205285E-013 +0.00000000E+000 -0.42410569E-005
 +0.27246029E-007 +0.31415930E+001 -0.38554175E-005
 +0.25312484E-007 +0.31415930E+001 -0.34793321E-005
 +0.23111794E-007 +0.31415930E+001 -0.26019439E-005
 -0.13009719E-013 +0.00000000E+000 -0.26019438E-005
 +0.27246030E-007 +0.31415930E+001 -0.38554175E-005
 +0.25312484E-007 +0.31415930E+001 -0.34793322E-005
 +0.23111795E-007 +0.31415930E+001 -0.26019439E-005
 -0.13009719E-013 +0.00000000E+000 -0.26019437E-005
 +0.19173048E-007 +0.31415930E+001 -0.42410571E-005
 +0.18072423E-007 +0.31415930E+001 -0.39029796E-005
 +0.17759375E-007 +0.31415930E+001 -0.29472804E-005
 -0.92591567E-008 +0.00000000E+000 -0.29472803E-005
 +0.25549998E-007 +0.31415930E+001 -0.42410571E-005
 +0.23993076E-007 +0.31415930E+001 -0.39476998E-005
 +0.22388947E-007 +0.31415930E+001 -0.30061005E-005
 -0.15030502E-013 +0.00000000E+000 -0.30061003E-005
 +0.23111807E-007 +0.31415930E+001 -0.26019440E-005
 +0.21476398E-007 +0.31415930E+001 -0.14272057E-005
 +0.20775814E-007 +0.31415930E+001 +0.30103397E-013
 +0.20775814E-007 +0.00000000E+000 +0.00000000E+000
 +0.23111808E-007 +0.31415930E+001 -0.26019439E-005
 +0.21476399E-007 +0.31415930E+001 -0.14272055E-005
 +0.20775816E-007 +0.31415930E+001 +0.30103371E-013
 +0.20775816E-007 +0.00000000E+000 +0.00000000E+000
 +0.27018532E-007 +0.31415930E+001 -0.29472804E-005
 +0.27229335E-007 +0.31415930E+001 -0.16221895E-005
 +0.27201399E-007 +0.31415930E+001 -0.46343215E-013
 +0.27201399E-007 +0.00000000E+000 +0.00000000E+000
 +0.22388962E-007 +0.31415930E+001 -0.30061005E-005
 +0.21308683E-007 +0.31415930E+001 -0.16669098E-005
 +0.20824450E-007 +0.31415930E+001 -0.44450405E-014
 +0.20824450E-007 +0.00000000E+000 +0.00000000E+000
 
*Time   [ T , DT ]
   0.1000000E+01    0.1000000E-02
