\relax 
\catcode`"\active
\citation{citeulike:416747}
\citation{techlncc132006}
\citation{Blanco2007a}
\citation{paraview}
\citation{vtk}
\select@language{english}
\@writefile{toc}{\select@language{english}}
\@writefile{lof}{\select@language{english}}
\@writefile{lot}{\select@language{english}}
\@writefile{toc}{\contentsline {section}{\numberline {1}\hskip -1em.~Introduction}{1}}
\citation{harreld96}
\citation{marie04}
\citation{sato98viewpoint}
\citation{stergiopulos92}
\citation{lebarbajec:2003b}
\citation{daren01}
\citation{svr2008}
\citation{svr2008}
\@writefile{toc}{\contentsline {section}{\numberline {2}\hskip -1em.~Related Works}{2}}
\@writefile{toc}{\contentsline {section}{\numberline {3}\hskip -1em.~Modeling Abdominal Aneurysms}{2}}
\@writefile{lof}{\contentsline {figure}{\numberline {1}{\ignorespaces System interface. The sphere widget is represented in wireframe mode.}}{3}}
\newlabel{fig:interface01}{{1}{3}}
\@writefile{toc}{\contentsline {subsection}{\numberline {3.1}Merging surfaces}{3}}
\@writefile{lof}{\contentsline {figure}{\numberline {2}{\ignorespaces Abdominal aneurysms with different resolutions. The resolution modifier was set to (a) 50\%, (b) 100\%, (c) 150\% and (d) 220\%.}}{4}}
\newlabel{fig:resolution}{{2}{4}}
\@writefile{lof}{\contentsline {figure}{\numberline {3}{\ignorespaces Example of (a) Stenoses, (b) Cerebral aneurysm and (c) abdominal aneurysms.}}{4}}
\newlabel{fig:types}{{3}{4}}
\@writefile{toc}{\contentsline {section}{\numberline {4}Mathematical Model of the coupled 3D -- 1D blood flow simulation}{4}}
\citation{Blanco2007a}
\@writefile{lof}{\contentsline {figure}{\numberline {4}{\ignorespaces Abdominal aneurysms with different sizes.}}{5}}
\newlabel{fig:radius}{{4}{5}}
\citation{Kivity1974b}
\citation{Blanco2007a}
\newlabel{eq1}{{1}{6}}
\newlabel{eq2}{{2}{6}}
\newlabel{eq3}{{3}{6}}
\newlabel{eq4}{{4}{6}}
\newlabel{eq5}{{5}{6}}
\newlabel{eq6}{{6}{6}}
\newlabel{eq7}{{7}{6}}
\newlabel{eq8}{{8}{6}}
\newlabel{eq9}{{9}{6}}
\@writefile{toc}{\contentsline {section}{\numberline {5}Results}{6}}
\@writefile{lof}{\contentsline {figure}{\numberline {5}{\ignorespaces A segment of the abdominal aorta without aneurism (a), with an aneurism generated artificially (b) and both cases overlayed (c).}}{7}}
\newlabel{fig:fig01}{{5}{7}}
\@writefile{lof}{\contentsline {figure}{\numberline {6}{\ignorespaces Characteristics of the flow in the healthy aorta: Streamlines (a), velocity profiles (b) and both overlayed (c).}}{7}}
\newlabel{fig:fig02}{{6}{7}}
\@writefile{lof}{\contentsline {figure}{\numberline {7}{\ignorespaces Details of the flow after inserting of the aneurism. Streamlines (a), streamlines and modulus of the velocity profile and a zoom in the region of the aneurism (c).}}{8}}
\newlabel{fig:fig03}{{7}{8}}
\@writefile{lof}{\contentsline {figure}{\numberline {8}{\ignorespaces Comparison between a natural aneurism in the pericallosal artery and an artificial aneurism generated in the same artery.}}{8}}
\newlabel{fig:fig04}{{8}{8}}
\bibstyle{latex8}
\bibdata{references_BLIND}
\bibcite{techlncc132006}{1}
\@writefile{lof}{\contentsline {figure}{\numberline {9}{\ignorespaces Details of the flow in the arterial segment with a natural aneurism: streamlines (a), velocity profile (b) and a zoom inside the aneurism, with streamlines and velocity profiles overlayed.}}{9}}
\newlabel{fig:fig05}{{9}{9}}
\@writefile{lof}{\contentsline {figure}{\numberline {10}{\ignorespaces Details of the flow in the arterial segment with an artificial aneurism: streamlines (a), velocity profile (b) and streamlines and velocity profiles overlayed.}}{9}}
\newlabel{fig:fig06}{{10}{9}}
\@writefile{toc}{\contentsline {section}{\numberline {6}\hskip -1em.~Conclusions}{9}}
\bibcite{Blanco2007a}{2}
\bibcite{svr2008}{3}
\bibcite{citeulike:416747}{4}
\bibcite{Kivity1974b}{5}
\bibcite{lebarbajec:2003b}{6}
\bibcite{daren01}{7}
\bibcite{harreld96}{8}
\bibcite{marie04}{9}
\bibcite{paraview}{10}
\bibcite{sato98viewpoint}{11}
\bibcite{stergiopulos92}{12}
\bibcite{vtk}{13}
