2
0	5.00E+04			
0.8	5.00E+04			

2
0	5.00E+04			
0.8	5.00E+04			

2
0	0										
0.8	0												

18
0	0
0.017544	0
0.057544	21029748.78
0.067544	31287612.2
0.077544	37405515.17
0.087544	41173851.65
0.097544	44238881.1
0.109544	43987079.81
0.137544	42120277.18
0.157544	38490865.54
0.177544	33394060.2
0.197544	25101983.37
0.217544	19866253.18
0.237544	15064663.14
0.257544	10411288.55
0.277544	-5996864.695
0.318104	0
0.8	0