2
0	5.00E+04			
0.8	5.00E+04			

2
0	5.00E+04			
0.8	5.00E+04			

2
0	0										
0.8	0												

19
0	0
0.017544	0
0.067544	23071476.62
0.104544	34062219.41
0.112544	35878871.11
0.130544	37725800.34
0.154544	38089130.69
0.202544	31867098.61
0.217544	26371727.21
0.241544	18492000.45
0.279544	12269968.37
0.291544	9522282.671
0.326544	-5495371.399
0.340544	-6403697.25
0.406544	-365601.155
0.418544	731959.2483
0.460544	915895.2331
0.484544	0
0.8	0